349.3808, 6.4672
349.3797, 6.7067
349.9691, 6.9461
350.5598, 6.946
351.1503, 6.9459
351.7398, 7.1853
352.3304, 7.1852
352.9209, 7.185
353.5104, 7.4243
354.101, 7.4243
354.6915, 7.4242
355.281, 7.6636
355.8716, 7.6635
356.4621, 7.6634
357.0527, 7.6633
357.6432, 7.6631
358.2327, 7.9024
358.8222, 8.142
359.4117, 8.3814
360.0012, 8.6208
360.5907, 8.8601
361.1802, 9.0996
361.7697, 9.339
362.3592, 9.5784
362.9485, 9.8178
363.5381, 10.0572
364.1276, 10.2966
364.717, 10.536
365.3077, 10.5359
365.8982, 10.5356
366.4877, 10.7752
367.0783, 10.775
367.6678, 11.0144
368.2572, 11.2538
368.8467, 11.4932
369.4362, 11.7326
370.0257, 11.9721
370.6152, 12.2115
370.6141, 12.451
370.6131, 12.6905
371.2026, 12.9299
371.2015, 13.1694
371.791, 13.4088
371.7899, 13.6482
372.3805, 13.6482
372.3794, 13.8877
372.3784, 14.1273
372.3773, 14.3668
372.9668, 14.6061
372.9657, 14.8457
372.9647, 15.0852
372.9636, 15.3248
373.5531, 15.5642
373.5521, 15.8037
374.1415, 16.0431
374.7309, 16.2825
375.3205, 16.5219
375.3195, 16.7614
375.3184, 17.0009
375.9079, 17.2403
375.9068, 17.4799
375.9058, 17.7194
375.9047, 17.9588
376.4942, 18.1983
376.4931, 18.4378
376.4921, 18.6773
376.491, 18.9169
377.0805, 19.1562
377.0794, 19.3958
377.0784, 19.6353
377.0773, 19.8748
377.6667, 20.1142
377.6658, 20.3538
378.2551, 20.5932
378.2542, 20.8327
378.8447, 20.8326
378.8437, 21.0721
378.8426, 21.3115
378.8416, 21.5511
379.431, 21.7905
379.43, 22.0301
379.4289, 22.2696
379.4279, 22.5091
380.0174, 22.7485
380.0163, 22.988
380.6058, 23.2274
381.1953, 23.4668
381.7848, 23.7062
381.7837, 23.9458
381.7826, 24.1853
382.3721, 24.4247
382.3711, 24.6642
382.37, 24.9037
382.369, 25.1432
382.9584, 25.3826
382.9574, 25.6221
383.5469, 25.8616
383.5457, 26.1011
384.1364, 26.101
384.1353, 26.3405
384.1342, 26.58
384.1332, 26.8195
384.7227, 27.0589
384.7216, 27.2985
385.3111, 27.5379
385.31, 27.7774
385.9005, 27.7772
385.8995, 28.0168
385.8984, 28.2563
385.8974, 28.4958
386.4868, 28.7351
386.4858, 28.9748
386.4848, 29.2143
386.4837, 29.4538
387.0732, 29.6932
387.0721, 29.9327
387.0711, 30.1722
387.07, 30.4118
387.6595, 30.6512
387.6585, 30.8907
388.2479, 31.1301
388.8374, 31.3695
389.4269, 31.6089
389.4259, 31.8484
389.4248, 32.0879
390.0143, 32.3273
390.0132, 32.5669
390.0122, 32.8064
390.0111, 33.0459
390.6006, 33.2852
390.5995, 33.5248
390.5985, 33.7644
390.5974, 34.0039
391.1869, 34.2433
391.1859, 34.4828
391.1848, 34.7223
391.1837, 34.9618
391.7732, 35.2012
391.7722, 35.4408
391.7711, 35.6803
391.77, 35.9198
392.3595, 36.1592
392.3585, 36.3987
392.3574, 36.6383
392.3563, 36.8778
392.9458, 37.1172
392.9447, 37.3567
392.9437, 37.5962
392.9426, 37.8357
393.5321, 38.0751
393.5311, 38.3147
393.53, 38.5542
393.529, 38.7936
394.1185, 39.0331
394.1174, 39.2726
394.7069, 39.512
394.7058, 39.7516
395.2964, 39.7513
395.2953, 39.991
395.2943, 40.2305
395.2932, 40.47
395.8827, 40.7094
395.8816, 40.9489
395.8806, 41.1884
395.8795, 41.428
395.8784, 41.6675
395.8774, 41.907
395.8763, 42.1465
395.8753, 42.386
395.8742, 42.6256
395.8731, 42.8651
395.8721, 43.1046
395.871, 43.3441
396.4605, 43.5835
396.4594, 43.8231
396.4584, 44.0626
396.4573, 44.3021
397.0468, 44.5415
397.0458, 44.781
397.0447, 45.0205
397.0436, 45.2601
397.6331, 45.4995
397.632, 45.7389
397.631, 45.9785
397.6299, 46.218
397.6289, 46.4576
397.6278, 46.6971
397.6268, 46.9365
397.6257, 47.1761
398.2152, 47.4155
398.2141, 47.655
398.2131, 47.8946
398.212, 48.1341
398.8014, 48.3735
398.8004, 48.613
399.3899, 48.8524
399.3889, 49.0919
399.9794, 49.0918
399.9784, 49.3313
399.9773, 49.5709
399.9762, 49.8104
400.5657, 50.0498
400.5647, 50.2893
400.5636, 50.5288
400.5625, 50.7684
401.152, 51.0078
401.151, 51.2473
401.1499, 51.4868
401.1488, 51.7263
401.7383, 51.9657
401.7372, 52.2052
401.7362, 52.4447
401.7351, 52.6843
401.7341, 52.9238
401.733, 53.1633
401.732, 53.4028
401.7309, 53.6423
402.3204, 53.8818
402.3193, 54.1213
402.3183, 54.3608
402.3172, 54.6002
402.9066, 54.8397
402.9057, 55.0793
402.9045, 55.3188
402.9035, 55.5583
403.4929, 55.7976
403.492, 56.0372
403.4909, 56.2767
403.4898, 56.5163
404.0793, 56.7557
404.0783, 56.9952
404.0772, 57.2347
404.0761, 57.4742
404.6656, 57.7136
404.6646, 57.9532
404.6635, 58.1927
404.6625, 58.4322
404.6614, 58.6717
404.6602, 58.9112
405.2498, 59.1506
405.2488, 59.3902
405.8393, 59.3901
405.8383, 59.6296
405.8372, 59.8691
405.8361, 60.1086
406.4256, 60.3479
406.4245, 60.5875
406.4235, 60.8271
406.4224, 61.0666
407.0119, 61.306
407.0109, 61.5455
407.0098, 61.785
407.0087, 62.0245
407.5981, 62.264
407.5972, 62.5034
407.596, 62.7429
407.5951, 62.9825
408.1844, 63.2219
408.1835, 63.4614
408.1824, 63.701
408.1814, 63.9405
408.7709, 64.1799
408.7698, 64.4194
408.7687, 64.6589
408.7677, 64.8984
409.3572, 65.1379
409.3561, 65.3774
409.355, 65.6169
409.354, 65.8564
409.9435, 66.0958
409.9424, 66.3353
409.9414, 66.5749
409.9403, 66.8144
410.5298, 67.0538
410.5287, 67.2933
410.5276, 67.5328
410.5266, 67.7723
411.1161, 68.0118
411.115, 68.2513
411.7045, 68.4907
412.294, 68.7301
412.8835, 68.9695
412.8824, 69.209
412.8814, 69.4485
412.8803, 69.688
412.8793, 69.9276
412.8782, 70.1671
412.8771, 70.4066
413.4666, 70.646
413.4656, 70.8855
413.4645, 71.1251
413.4634, 71.3646
414.0529, 71.604
414.0519, 71.8435
414.0508, 72.083
414.0498, 72.3225
414.6392, 72.5619
414.6381, 72.8014
414.6371, 73.041
414.636, 73.2805
415.2256, 73.5199
415.2245, 73.7593
415.2234, 73.999
415.2224, 74.2385
415.8119, 74.4779
415.8108, 74.7174
415.8096, 74.9569
415.8087, 75.1964
416.3982, 75.4358
416.3971, 75.6754
416.396, 75.9149
416.395, 76.1544
416.9845, 76.3938
416.9834, 76.6333
417.5729, 76.8727
417.5718, 77.1123
418.1623, 77.1121
418.1613, 77.3517
418.1602, 77.5912
418.1592, 77.8307
418.7487, 78.0701
418.7476, 78.3096
418.7466, 78.5492
418.7455, 78.7887
419.335, 79.0281
419.334, 79.2676
419.3329, 79.507
419.3317, 79.7466
419.9213, 79.986
419.9203, 80.2256
419.9192, 80.4651
419.9181, 80.7046
420.5076, 80.944
420.5066, 81.1835
420.5055, 81.4231
420.5044, 81.6625
421.0939, 81.902
421.0929, 82.1415
421.0918, 82.381
421.0908, 82.6205
421.6802, 82.8599
421.6792, 83.0995
421.6781, 83.339
421.6771, 83.5785
422.2666, 83.8178
422.2655, 84.0574
422.2644, 84.297
422.2634, 84.5365
422.8529, 84.7759
422.8518, 85.0154
422.8507, 85.2549
422.8497, 85.4944
423.4392, 85.7338
423.4381, 85.9734
424.0276, 86.2128
424.0265, 86.4523
424.6171, 86.4522
424.616, 86.6917
424.615, 86.9312
424.6139, 87.1707
425.2034, 87.4101
425.2023, 87.6497
425.7917, 87.8891
425.7908, 88.1286
426.3813, 88.1285
426.3803, 88.3679
426.3792, 88.6075
426.378, 88.847
426.9676, 89.0864
426.9666, 89.326
426.9655, 89.5655
426.9644, 89.805
427.5539, 90.0444
427.5529, 90.2839
427.5518, 90.5234
427.5508, 90.763
428.1402, 91.0024
428.1392, 91.2419
428.7287, 91.4813
429.3182, 91.7207
429.9077, 91.9601
429.9066, 92.1996
429.9055, 92.4391
430.495, 92.6785
430.494, 92.9181
430.4929, 93.1576
430.4918, 93.3971
431.0813, 93.6364
431.0803, 93.876
431.0792, 94.1156
431.0782, 94.3551
431.6676, 94.5945
431.6665, 94.834
432.2561, 95.0734
432.255, 95.3129
432.8456, 95.3128
432.8445, 95.5523
433.434, 95.7917
434.0235, 96.0311
434.613, 96.2705
434.6118, 96.5101
434.6109, 96.7496
435.2003, 96.9889
435.1993, 97.2285
435.7888, 97.4679
436.3783, 97.7073
436.9678, 97.9466
437.5572, 98.1861
438.1467, 98.4255
438.7362, 98.6649
439.3256, 98.9043
439.9152, 99.1437
440.5047, 99.3831
441.0953, 99.383
441.6858, 99.3829
442.2753, 99.6223
442.8658, 99.6221
443.4564, 99.6221
444.047, 99.6219
444.6364, 99.8614
445.227, 99.8612
445.8175, 99.8611
446.4081, 99.861
446.9986, 99.8609
447.5892, 99.8608
448.1798, 99.8606
448.7703, 99.8605
449.3618, 99.6209
449.9525, 99.6208
450.543, 99.6207
451.1346, 99.381
451.7252, 99.3809
452.3168, 99.1413
452.9083, 98.9016
453.5, 98.662
454.0916, 98.4223
454.6832, 98.1827
455.2749, 97.9431
455.8665, 97.7034
456.4581, 97.4638
456.4591, 97.2243
457.0497, 97.2241
457.0508, 96.9846
457.6423, 96.745
457.6434, 96.5055
458.234, 96.5053
458.2349, 96.2658
458.8267, 96.0262
458.8277, 95.7867
459.4183, 95.7865
459.4193, 95.547
459.4203, 95.3075
459.4215, 95.068
460.0131, 94.8283
460.0141, 94.5888
460.6057, 94.3492
460.6068, 94.1097
461.1973, 94.1095
461.1984, 93.87
461.1995, 93.6305
461.2005, 93.391
461.7921, 93.1513
461.7932, 92.9118
462.3848, 92.6722
462.3859, 92.4327
462.9764, 92.4325
462.9775, 92.193
462.9786, 91.9535
462.9796, 91.714
463.5712, 91.4743
463.5723, 91.2348
464.1639, 90.9952
464.165, 90.7557
464.7555, 90.7555
464.7566, 90.516
464.7576, 90.2765
464.7587, 90.037
465.3503, 89.7973
465.3514, 89.5577
465.943, 89.3182
465.944, 89.0787
466.5346, 89.0785
466.5356, 88.839
466.5367, 88.5995
466.5377, 88.3599
467.1294, 88.1203
467.1304, 87.8808
467.1315, 87.6413
467.7231, 87.4017
467.7242, 87.1621
468.3158, 86.9224
468.3169, 86.683
468.3179, 86.4434
468.9095, 86.2038
468.9106, 85.9643
468.9117, 85.7248
468.9127, 85.4852
469.5043, 85.2456
469.5053, 85.0061
469.5064, 84.7666
469.5074, 84.527
470.0991, 84.2873
470.1002, 84.0479
470.6918, 83.8082
471.2833, 83.5686
471.875, 83.329
471.8761, 83.0894
471.8771, 82.8498
472.4687, 82.6103
472.4698, 82.3708
472.4708, 82.1312
472.4719, 81.8917
473.0635, 81.6521
473.0646, 81.4126
473.0657, 81.173
473.0667, 80.9335
473.6583, 80.6939
473.6594, 80.4544
473.6604, 80.2147
473.6615, 79.9752
474.253, 79.7357
474.2542, 79.4962
474.2553, 79.2566
474.2563, 79.0171
474.8479, 78.7774
474.849, 78.538
475.4405, 78.2983
475.4417, 78.0588
476.0322, 78.0587
476.0333, 77.8192
476.0343, 77.5796
476.0354, 77.3401
476.627, 77.1005
476.628, 76.861
476.6291, 76.6214
476.6301, 76.3819
477.2218, 76.1423
477.2229, 75.9026
477.2239, 75.6632
477.225, 75.4237
477.8166, 75.1841
477.8176, 74.9445
477.8187, 74.705
477.8197, 74.4655
478.4114, 74.2259
478.4125, 73.9863
478.4135, 73.7468
478.4146, 73.5072
479.0062, 73.2677
479.0073, 73.0281
479.0083, 72.7886
479.0094, 72.5491
479.601, 72.3094
479.6021, 72.0699
480.1937, 71.8303
480.1947, 71.5908
480.7852, 71.5907
480.7863, 71.3511
480.7873, 71.1116
480.7885, 70.8721
481.3801, 70.6324
481.3811, 70.3929
481.3822, 70.1534
481.3833, 69.9139
481.9748, 69.6743
481.9759, 69.4346
481.9769, 69.1952
481.9781, 68.9557
482.5697, 68.7161
482.5707, 68.4765
482.5718, 68.237
482.5728, 67.9975
483.1645, 67.7579
483.1655, 67.5183
483.1666, 67.2788
483.1676, 67.0393
483.7593, 66.7995
483.7603, 66.5601
484.3519, 66.3205
484.353, 66.081
484.9435, 66.0808
484.9445, 65.8413
484.9457, 65.6018
484.9466, 65.3623
485.5383, 65.1226
485.5394, 64.8831
485.5405, 64.6436
485.5415, 64.4041
486.1331, 64.1644
486.1342, 63.9249
486.1353, 63.6854
486.1363, 63.4459
486.7279, 63.2062
486.729, 62.9667
486.73, 62.7271
486.7311, 62.4877
486.7322, 62.2482
486.7332, 62.0086
487.3248, 61.769
487.3259, 61.5295
487.9165, 61.5293
487.9175, 61.2898
487.9186, 61.0503
487.9196, 60.8108
488.5112, 60.5712
488.5123, 60.3316
488.5133, 60.0921
488.5144, 59.8526
489.106, 59.613
489.1071, 59.3734
489.1082, 59.1339
489.1092, 58.8944
489.7008, 58.6548
489.7019, 58.4152
489.7029, 58.1757
489.704, 57.9362
490.2955, 57.6965
490.2967, 57.457
490.2978, 57.2175
490.2988, 56.978
490.8904, 56.7383
490.8915, 56.4988
491.483, 56.2591
491.4842, 56.0197
492.0747, 56.0195
492.0758, 55.78
492.0768, 55.5405
492.0779, 55.301
492.6695, 55.0613
492.6705, 54.8218
493.2622, 54.5822
493.2631, 54.3427
493.8538, 54.3425
493.8549, 54.103
493.8559, 53.8635
493.857, 53.624
494.4485, 53.3843
494.4497, 53.1448
494.4506, 52.9053
494.4518, 52.6658
495.0434, 52.4261
495.0444, 52.1865
495.636, 51.947
495.6371, 51.7075
496.2277, 51.7073
496.2287, 51.4678
496.2298, 51.2283
496.2309, 50.9888
496.8225, 50.749
496.8235, 50.5096
496.8246, 50.2701
496.8256, 50.0306
497.4173, 49.7909
497.4183, 49.5514
497.4194, 49.3119
497.4203, 49.0724
498.0121, 48.8327
498.0131, 48.5932
498.0142, 48.3537
498.0152, 48.1142
498.6069, 47.8745
498.6078, 47.635
498.609, 47.3955
498.6099, 47.156
499.2017, 46.9163
499.2027, 46.6768
499.7943, 46.4372
499.7953, 46.1976
500.3859, 46.1975
500.387, 45.958
500.3881, 45.7185
500.3891, 45.479
500.9807, 45.2393
500.9818, 44.9998
500.9828, 44.7603
500.9839, 44.5208
501.5755, 44.2811
501.5766, 44.0416
502.1682, 43.802
502.1693, 43.5624
502.7598, 43.5623
502.7609, 43.3228
502.7619, 43.0833
502.763, 42.8437
503.3546, 42.604
503.3557, 42.3646
503.3567, 42.1251
503.3578, 41.8856
503.9494, 41.6459
503.9505, 41.4064
503.9515, 41.1669
503.9526, 40.9274
504.5442, 40.6877
504.5453, 40.4482
504.5463, 40.2086
504.5474, 39.9691
505.139, 39.7295
505.1401, 39.49
505.1411, 39.2505
505.1421, 39.0109
505.7338, 38.7713
505.7348, 38.5318
506.3265, 38.2922
506.3275, 38.0526
506.9181, 38.0525
506.9191, 37.813
506.9202, 37.5735
506.9213, 37.3338
507.5129, 37.0943
507.5139, 36.8548
507.515, 36.6153
507.5161, 36.3757
508.1077, 36.136
508.1087, 35.8965
508.7003, 35.6569
508.7014, 35.4174
509.292, 35.4173
509.293, 35.1778
509.8846, 34.9381
509.8857, 34.6985
510.4762, 34.6985
510.4773, 34.459
510.4784, 34.2195
510.4794, 33.9799
511.071, 33.7403
511.0721, 33.5008
511.0732, 33.2612
511.0742, 33.0217
511.6658, 32.7821
511.6669, 32.5426
512.2585, 32.3029
512.2596, 32.0634
512.85, 32.0633
512.8512, 31.8237
512.8521, 31.5843
512.8533, 31.3447
513.4449, 31.1051
513.446, 30.8656
514.0376, 30.6259
514.6292, 30.3862
515.2208, 30.1467
515.2219, 29.9071
515.2229, 29.6676
515.8145, 29.428
515.8155, 29.1885
515.8167, 28.9489
515.8176, 28.7094
516.4093, 28.4698
516.4104, 28.2303
517.002, 27.9906
517.0031, 27.7511
517.5936, 27.751
517.5947, 27.5114
517.5957, 27.2719
517.5968, 27.0324
518.1884, 26.7928
518.1895, 26.5533
518.7811, 26.3136
519.3727, 26.074
519.9643, 25.8343
519.9654, 25.5948
519.9664, 25.3553
520.5581, 25.1157
520.5591, 24.8761
521.1507, 24.6364
521.7423, 24.3969
522.3338, 24.1572
522.335, 23.9177
522.3361, 23.6782
522.9277, 23.4385
522.9287, 23.199
523.5204, 22.9594
524.112, 22.7197
524.7036, 22.4801
524.7046, 22.2406
524.7057, 22.0011
525.2973, 21.7614
525.2984, 21.5219
525.89, 21.2823
525.8911, 21.0427
526.4816, 21.0426
526.4827, 20.8031
527.0743, 20.5635
527.6659, 20.3237
528.2575, 20.0842
528.2586, 19.8447
528.2596, 19.6051
528.8512, 19.3655
528.8523, 19.126
529.4439, 18.8862
529.445, 18.6468
530.0355, 18.6467
530.0366, 18.4072
530.0376, 18.1677
530.0387, 17.9281
530.6303, 17.6885
530.6314, 17.449
531.223, 17.2093
531.8146, 16.9697
532.4062, 16.7301
532.9978, 16.4904
532.9989, 16.2509
533.5894, 16.2508
533.5905, 16.0113
534.1821, 15.7715
534.7737, 15.532
535.3653, 15.2923
535.9569, 15.0527
536.5486, 14.8131
537.1402, 14.5734
537.7318, 14.3338
538.3234, 14.0941
538.915, 13.8545
539.5066, 13.6149
540.0982, 13.3752
540.6899, 13.1356
541.2814, 12.896
541.8731, 12.6562
542.4647, 12.4167
543.0552, 12.4166
543.6458, 12.4163
544.2374, 12.1768
544.8279, 12.1767
545.4196, 11.937
546.0112, 11.6974
546.6028, 11.4578
547.1944, 11.2181
547.1955, 10.9786
547.786, 10.9785
547.7871, 10.7389
548.3787, 10.4993
548.9703, 10.2597
549.5619, 10.02
550.1535, 9.7804
550.1546, 9.5409
550.745, 9.5408
550.7462, 9.3012
551.3378, 9.0616
551.9294, 8.822
552.521, 8.5823
553.1127, 8.3427
553.7043, 8.1031
554.2959, 7.8634
554.8875, 7.6238
555.4791, 7.3841
556.0707, 7.1445
556.6623, 6.9049
557.2539, 6.6652
557.8456, 6.4256
558.4372, 6.1859
559.0288, 5.9463
559.6193, 5.9462
559.6204, 5.7067
560.2109, 5.7065
560.8014, 5.7064
561.392, 5.7063
561.9837, 5.4667
562.5742, 5.4666
563.1648, 5.4664
563.7553, 5.4663
564.3469, 5.2267
564.9375, 5.2266
565.528, 5.2264
566.1186, 5.2263
566.7102, 4.9867
567.3007, 4.9866
567.8913, 4.9864
568.4819, 4.9863
569.0724, 4.9862
569.663, 4.9861
570.2535, 4.986
570.8441, 4.9859
571.4346, 4.9857
572.0252, 4.9856
572.6168, 4.746
573.2084, 4.5063
573.8, 4.2667
574.3906, 4.2666
574.9811, 4.2665
575.5716, 4.2664
576.1622, 4.2662
576.7528, 4.2661
577.3433, 4.266
577.9348, 4.0264
578.5255, 4.0262
579.116, 4.0261
579.7066, 4.026
580.2982, 3.7864
580.8887, 3.7862
581.4793, 3.7861
582.0698, 3.786
582.6615, 3.5464
583.252, 3.5463
583.8426, 3.5461
584.4331, 3.546
585.0247, 3.3064
585.6153, 3.3063
586.2058, 3.3061
586.7964, 3.306
587.3869, 3.3059
587.9775, 3.3058
588.568, 3.3057
589.1586, 3.3056
589.7502, 3.0659
590.3408, 3.0658
590.9313, 3.0657
591.5229, 2.826
592.1135, 2.8258
592.704, 2.8258
593.2946, 2.8256
593.8862, 2.5861
594.4767, 2.5859
595.0673, 2.5857
595.6578, 2.5857
596.2495, 2.3461
596.8399, 2.3458
597.4306, 2.3458
598.0211, 2.3457
598.6127, 2.1061
599.2033, 2.1059
599.7938, 2.1058
600.3854, 1.8662
600.976, 1.866
601.5665, 1.866
602.1571, 1.8658
602.7476, 1.8657
603.3382, 1.8656
603.9287, 1.8655
604.5192, 1.8654
605.1098, 1.8652
605.7004, 1.8651
606.292, 1.6255
606.8826, 1.6254
607.4731, 1.6253
608.0637, 1.6251
608.6542, 1.625
609.2448, 1.6249
609.8353, 1.6248
610.4259, 1.6247
611.0175, 1.385
611.608, 1.3849
612.1985, 1.3848
612.7891, 1.3847
613.3797, 1.3846
613.9702, 1.3844
614.5608, 1.3843
615.1513, 1.3841
615.7419, 1.3841
616.3325, 1.384
616.923, 1.3838
617.5135, 1.3837
618.1052, 1.1441
618.6957, 1.144
619.2863, 1.1439
619.8768, 1.1437
620.4674, 1.1436
621.0579, 1.1435
621.6484, 1.1434
622.2389, 1.1433
622.8306, 0.9036
623.4212, 0.9035
624.0117, 0.9034
624.6023, 0.9033
625.1939, 0.6636
625.7845, 0.6635
626.375, 0.6634
626.9656, 0.6633
627.5572, 0.4236
628.1477, 0.4235
628.7383, 0.4234
629.3288, 0.4233
629.9194, 0.4232
630.511, 0.1835
631.1015, 0.1834
631.6921, 0.1833
632.2827, 0.1832
632.8732, 0.1831
633.4638, 0.1829
634.0543, 0.1828
634.6449, 0.1827
635.2354, 0.1826
635.826, 0.1825
636.4165, 0.1824
637.0081, -0.0573
637.5987, -0.0574
638.1892, -0.0575
638.7798, -0.0576
639.3703, -0.0578
639.9609, -0.0579
640.5514, -0.058
641.142, -0.0581
641.7325, -0.0582
642.3231, -0.0583
642.9136, -0.0585
643.5042, -0.0586
644.0947, -0.0587
644.6853, -0.0588
645.2759, -0.0589
645.8664, -0.0591
646.457, -0.0592
647.0475, -0.0593
647.6381, -0.0594
648.2286, -0.0594
648.8192, -0.0596
649.4097, -0.0598
650.0003, -0.0599
650.5908, -0.06