wavelength	intensity
234.5746	1.6824
234.573	1.6794
234.5715	1.6764
234.5699	1.6735
234.5683	1.6705
234.5668	1.6676
234.5652	1.6646
234.5636	1.6618
234.5621	1.6588
234.5606	1.6559
234.559	1.6529
234.5575	1.65
234.5558	1.6471
234.5544	1.6441
234.5528	1.6412
234.5512	1.6381
234.5497	1.6353
234.5481	1.6324
234.5466	1.6294
234.545	1.6265
234.5434	1.6235
234.5419	1.6206
234.9895	1.6176
234.988	1.6147
234.9864	1.6118
234.9848	1.6088
234.9832	1.6059
234.9817	1.6029
234.9802	1.6
234.9786	1.5971
234.9771	1.5941
234.9755	1.5912
234.974	1.5882
234.9724	1.5853
234.9708	1.5824
234.9693	1.5794
234.9678	1.5765
234.9662	1.5735
234.9646	1.5706
234.963	1.5676
234.9615	1.5647
234.96	1.5617
234.9584	1.5588
234.9569	1.5558
234.9553	1.5529
234.9538	1.55
234.9522	1.5471
234.9506	1.5441
234.9491	1.5412
234.9475	1.5382
234.946	1.5352
234.9444	1.5324
234.9428	1.5293
234.9413	1.5265
234.9398	1.5234
234.9382	1.5206
235.3858	1.5175
235.3843	1.5147
235.3827	1.5118
235.3811	1.5088
235.3796	1.5059
235.378	1.5029
235.3765	1.5
235.3749	1.4971
235.3734	1.4941
235.3718	1.4912
235.3703	1.4882
235.3687	1.4853
235.3672	1.4824
235.3656	1.4794
235.3641	1.4765
235.3625	1.4735
235.3609	1.4706
235.3594	1.4676
235.3578	1.4647
235.3563	1.4618
235.3547	1.4588
235.3532	1.4559
235.3516	1.4529
235.3501	1.45
235.3485	1.4471
235.347	1.4441
235.3454	1.4412
235.793	1.4382
235.7913	1.4353
235.7899	1.4324
235.7883	1.4294
235.7868	1.4264
235.7852	1.4235
235.7837	1.4205
235.7821	1.4176
235.7806	1.4147
235.779	1.4118
235.7774	1.4088
235.7759	1.4059
235.7743	1.4029
235.7728	1.4
235.7711	1.3971
235.7697	1.3941
235.7681	1.3912
235.7666	1.3881
235.765	1.3853
235.7635	1.3824
235.7619	1.3794
236.2095	1.3765
236.2079	1.3735
236.2064	1.3706
236.2048	1.3676
236.2033	1.3647
236.2017	1.3618
236.2002	1.3588
236.1985	1.3559
236.1971	1.3529
236.1955	1.35
236.194	1.3471
236.1924	1.3441
236.1908	1.3412
236.1893	1.3382
236.1877	1.3353
236.1862	1.3324
236.1846	1.3294
236.1831	1.3265
236.1815	1.3235
236.18	1.3206
236.1784	1.3176
236.1769	1.3147
236.1753	1.3118
236.1738	1.3088
236.6213	1.3059
236.6198	1.3029
236.6181	1.3
236.6167	1.2971
236.6151	1.2941
236.6136	1.2912
236.612	1.2882
236.6105	1.2852
236.6089	1.2824
236.6074	1.2793
236.6058	1.2765
236.6042	1.2735
236.6027	1.2706
236.6011	1.2676
236.5996	1.2647
236.5979	1.2618
236.5965	1.2588
236.5949	1.2559
236.5934	1.2529
236.5918	1.25
236.5903	1.2471
236.5887	1.2441
236.5871	1.2412
236.5856	1.2382
236.584	1.2353
236.5825	1.2324
236.5809	1.2294
236.5794	1.2265
236.5777	1.2235
236.5763	1.2206
236.5747	1.2176
236.5732	1.2147
236.5716	1.2118
236.5701	1.2088
237.0176	1.2059
237.0161	1.2029
237.0145	1.2
237.013	1.1971
237.0114	1.1941
237.0099	1.1912
237.0083	1.1882
237.0068	1.1853
237.0052	1.1824
237.0037	1.1794
237.0021	1.1764
237.0005	1.1735
236.999	1.1706
236.9973	1.1676
236.9959	1.1647
236.9943	1.1618
236.9928	1.1588
236.9912	1.1559
236.9897	1.1529
236.9881	1.15
236.9866	1.1471
236.9849	1.1441
236.9834	1.1412
236.9819	1.1381
236.9803	1.1353
236.9788	1.1324
236.9771	1.1294
236.9757	1.1265
236.9741	1.1235
236.9726	1.1206
237.4202	1.1176
237.4186	1.1147
237.417	1.1118
237.4155	1.1088
237.4139	1.1059
237.4123	1.1029
237.4108	1.1
237.4093	1.0971
237.4077	1.0941
237.4062	1.0912
237.4046	1.0882
237.4031	1.0853
237.4015	1.0824
237.4	1.0794
237.3984	1.0765
237.3968	1.0735
237.3953	1.0706
237.3937	1.0676
237.8413	1.0647
237.8397	1.0618
237.8382	1.0588
237.8367	1.0559
237.8351	1.0529
237.8336	1.05
237.8319	1.0471
237.8304	1.0441
237.8289	1.0412
237.8273	1.0382
237.8258	1.0352
237.8242	1.0324
237.8227	1.0294
237.8211	1.0265
237.8195	1.0235
237.818	1.0206
237.8165	1.0176
237.8149	1.0147
237.8133	1.0118
237.8117	1.0088
237.8102	1.0059
237.8087	1.0029
237.8071	1.0
237.8056	0.9971
237.804	0.9941
237.8025	0.9912
237.8009	0.9882
237.7993	0.9853
238.2469	0.9824
238.2454	0.9794
238.2438	0.9765
238.2423	0.9735
238.2407	0.9706
238.2392	0.9676
238.2376	0.9647
238.2361	0.9618
238.2345	0.9588
238.233	0.9559
238.2314	0.9529
238.2299	0.95
238.2283	0.9471
238.2267	0.9441
238.2252	0.9412
238.2236	0.9382
238.2221	0.9353
238.2205	0.9324
238.219	0.9294
238.2174	0.9264
238.2159	0.9235
238.2143	0.9205
238.2128	0.9176
238.2112	0.9146
238.2097	0.9118
238.2081	0.9088
238.6557	0.9059
238.6541	0.9029
238.6526	0.9
238.651	0.8971
238.6495	0.8941
238.6479	0.8912
238.6463	0.8881
238.6448	0.8853
238.6433	0.8824
238.6417	0.8794
238.6401	0.8765
238.6385	0.8735
238.637	0.8706
238.6355	0.8676
238.6339	0.8647
238.6324	0.8618
238.6308	0.8588
238.6293	0.8559
238.6277	0.8529
238.6261	0.85
238.6246	0.8471
238.623	0.8441
238.6215	0.8412
238.6199	0.8382
238.6183	0.8353
238.6168	0.8324
238.6153	0.8294
239.0629	0.8265
239.0613	0.8235
239.0598	0.8206
239.0582	0.8176
239.0566	0.8147
239.0551	0.8117
239.0535	0.8088
239.052	0.8058
239.0504	0.8029
239.0489	0.8
239.0473	0.7971
239.0458	0.7941
239.0442	0.7912
239.0427	0.7882
239.0411	0.7852
239.0396	0.7824
239.038	0.7793
239.0364	0.7765
239.0349	0.7734
239.4825	0.7706
239.4809	0.7675
239.4794	0.7647
239.4778	0.7618
239.4763	0.7588
239.4747	0.7559
239.4732	0.7529
239.4716	0.75
239.47	0.7471
239.4685	0.7441
239.4668	0.7412
239.4654	0.7382
239.4638	0.7353
239.4623	0.7324
239.4607	0.7294
239.4592	0.7265
239.4576	0.7235
239.4561	0.7206
239.4545	0.7176
239.4529	0.7147
239.4514	0.7118
239.4498	0.7088
239.4483	0.7059
239.4466	0.7029
239.4452	0.7
239.8928	0.6971
239.8912	0.6941
239.8897	0.6912
239.8881	0.6882
239.8864	0.6853
239.885	0.6824
239.8834	0.6794
239.8819	0.6764
239.8803	0.6735
239.8788	0.6705
239.8772	0.6676
239.8757	0.6646
239.874	0.6618
239.8726	0.6588
239.871	0.6559
239.8695	0.6529
240.317	0.65
240.3155	0.6471
240.3139	0.6441
240.7614	0.6412
240.76	0.6381
240.7584	0.6353
240.7569	0.6324
240.7553	0.6294
240.7537	0.6265
240.7522	0.6235
240.7506	0.6206
240.749	0.6176
240.7475	0.6147
240.746	0.6118
241.1936	0.6088
241.192	0.6059
241.1905	0.6029
241.1889	0.6
241.1873	0.5971
241.1858	0.5941
241.1842	0.5912
241.6318	0.5882
241.6303	0.5853
241.6287	0.5824
241.6272	0.5794
241.6256	0.5765
241.624	0.5735
241.6225	0.5706
241.6209	0.5676
242.0685	0.5647
242.067	0.5617
242.0654	0.5588
242.0639	0.5558
242.0623	0.5529
242.0608	0.55
242.0592	0.5471
242.5068	0.5441
242.5051	0.5412
242.5037	0.5382
242.5021	0.5352
242.5006	0.5324
242.499	0.5293
242.9466	0.5265
242.9451	0.5234
243.3926	0.5206
243.3911	0.5175
243.8387	0.5147
243.8371	0.5118
244.2847	0.5088
244.2832	0.5059
244.2816	0.5029
244.7292	0.5
244.7276	0.4971
245.1752	0.4941
245.6228	0.4912
246.0704	0.4882
246.5194	0.4882
246.9687	0.4882
247.4178	0.4882
246.9702	0.4912
246.5211	0.4912
246.5227	0.4941
246.0735	0.4941
246.072	0.4912
246.5211	0.4912
246.9702	0.4912
247.4194	0.4912
247.87	0.4941
248.3208	0.4971
248.3223	0.5
247.8716	0.4971
247.4209	0.4941
246.9718	0.4941
247.4224	0.4971
247.8732	0.5
248.3239	0.5029
248.7746	0.5059
249.2253	0.5088
249.2268	0.5118
249.6775	0.5147
249.6791	0.5175
250.1298	0.5206
250.1313	0.5234
250.1329	0.5265
250.1344	0.5293
250.136	0.5324
250.1375	0.5352
250.1391	0.5382
250.5897	0.5412
250.5913	0.5441
250.5929	0.5471
251.0436	0.55
251.0451	0.5529
251.0467	0.5558
251.0483	0.5588
251.499	0.5617
251.5005	0.5647
251.5021	0.5676
251.5036	0.5706
251.9543	0.5735
251.9559	0.5765
251.9574	0.5794
252.4081	0.5824
252.4097	0.5853
252.8604	0.5882
252.8618	0.5912
252.8635	0.5941
252.865	0.5971
253.3157	0.6
253.3173	0.6029
253.3188	0.6059
253.3204	0.6088
253.3219	0.6118
253.3235	0.6147
253.325	0.6176
253.7757	0.6206
253.7772	0.6235
253.7788	0.6265
253.7804	0.6294
254.2311	0.6324
254.2327	0.6353
254.2342	0.6381
254.6848	0.6412
254.6865	0.6441
255.1372	0.6471
255.1387	0.65
255.1403	0.6529
255.1418	0.6559
255.5925	0.6588
255.5941	0.6618
255.5956	0.6646
255.5972	0.6676
255.5987	0.6705
255.6002	0.6735
255.6018	0.6764
256.0525	0.6794
256.0541	0.6824
256.0556	0.6853
256.0572	0.6882
256.0587	0.6912
256.5093	0.6941
256.511	0.6971
256.5125	0.7
256.5141	0.7029
256.5157	0.7059
256.9664	0.7088
256.9679	0.7118
256.9695	0.7147
256.971	0.7176
256.9726	0.7206
257.4233	0.7235
257.4248	0.7265
257.4264	0.7294
257.4279	0.7324
257.8786	0.7353
257.8801	0.7382
257.8817	0.7412
257.8833	0.7441
257.8848	0.7471
257.8864	0.75
257.8879	0.7529
258.3386	0.7559
258.3402	0.7588
258.3418	0.7618
258.3433	0.7647
258.3449	0.7675
258.7955	0.7706
258.7971	0.7734
258.7987	0.7765
258.8002	0.7793
259.2509	0.7824
259.2525	0.7852
259.254	0.7882
259.2556	0.7912
259.257	0.7941
259.7078	0.7971
259.7094	0.8
259.7109	0.8029
259.7125	0.8058
259.714	0.8088
259.7156	0.8117
260.1663	0.8147
260.1678	0.8176
260.1694	0.8206
260.171	0.8235
260.1724	0.8265
260.6232	0.8294
260.6248	0.8324
260.6263	0.8353
260.6279	0.8382
260.6294	0.8412
260.631	0.8441
261.0817	0.8471
261.0832	0.85
261.0848	0.8529
261.0863	0.8559
261.0879	0.8588
261.5386	0.8618
261.5401	0.8647
261.5417	0.8676
261.5432	0.8706
261.5448	0.8735
261.5464	0.8765
261.9969	0.8794
261.9986	0.8824
262.0002	0.8853
262.0017	0.8881
262.4524	0.8912
262.454	0.8941
262.4555	0.8971
262.4571	0.9
262.9078	0.9029
262.9093	0.9059
262.9109	0.9088
262.9123	0.9118
263.3631	0.9146
263.3647	0.9176
263.3662	0.9205
263.3678	0.9235
263.3693	0.9264
263.3709	0.9294
263.8216	0.9324
263.8231	0.9353
263.8247	0.9382
263.8262	0.9412
263.8277	0.9441
263.8294	0.9471
263.8309	0.95
264.2816	0.9529
264.2832	0.9559
264.2847	0.9588
264.2863	0.9618
264.737	0.9647
264.7385	0.9676
264.7401	0.9706
264.7416	0.9735
264.7431	0.9765
264.7447	0.9794
264.7463	0.9824
264.7478	0.9853
265.1985	0.9882
265.2001	0.9912
265.2016	0.9941
265.2032	0.9971
265.6539	1.0
265.6555	1.0029
265.657	1.0059
265.6585	1.0088
266.1093	1.0118
266.1108	1.0147
266.1124	1.0176
266.1139	1.0206
266.5646	1.0235
266.5662	1.0265
266.5676	1.0294
266.5693	1.0324
266.5708	1.0352
266.5724	1.0382
266.5739	1.0412
267.0246	1.0441
267.0262	1.0471
267.0277	1.05
267.0293	1.0529
267.0308	1.0559
267.0324	1.0588
267.034	1.0618
267.4847	1.0647
267.4862	1.0676
267.4878	1.0706
267.4893	1.0735
267.94	1.0765
267.9416	1.0794
267.9431	1.0824
267.9447	1.0853
268.3954	1.0882
268.3969	1.0912
268.3985	1.0941
268.4	1.0971
268.8507	1.1
268.8523	1.1029
268.8538	1.1059
268.8554	1.1088
268.8569	1.1118
269.3075	1.1147
269.3092	1.1176
269.3107	1.1206
269.3123	1.1235
269.3139	1.1265
269.3154	1.1294
269.7661	1.1324
269.7677	1.1353
269.7692	1.1381
270.2199	1.1412
270.2215	1.1441
270.223	1.1471
270.6722	1.1471
270.6737	1.15
271.1244	1.1529
271.126	1.1559
271.1275	1.1588
271.5782	1.1618
271.5798	1.1647
271.5813	1.1676
272.032	1.1706
272.0336	1.1735
272.0351	1.1764
272.0367	1.1794
272.4874	1.1824
272.4889	1.1853
272.4905	1.1882
272.9412	1.1912
272.9426	1.1941
272.9443	1.1971
272.9458	1.2
272.9474	1.2029
273.3981	1.2059
273.3996	1.2088
273.4012	1.2118
273.8519	1.2147
273.8534	1.2176
273.855	1.2206
274.3041	1.2206
274.3057	1.2235
274.7564	1.2265
274.7579	1.2294
274.7595	1.2324
275.2102	1.2353
275.2117	1.2382
275.2133	1.2412
275.664	1.2441
275.6656	1.2471
276.1162	1.25
276.5669	1.2529
277.0176	1.2559
277.4683	1.2588
277.919	1.2618
277.9175	1.2588
278.3651	1.2559
278.3635	1.2529
278.8127	1.2529
278.8111	1.25
279.2587	1.2471
279.257	1.2441
279.7046	1.2412
279.7032	1.2382
280.1507	1.2353
280.5998	1.2353
280.6014	1.2382
280.603	1.2412
281.0521	1.2412
280.6046	1.2441
280.6061	1.2471
280.157	1.2471
280.1585	1.25
280.6077	1.25
280.157	1.2471
280.6061	1.2471
280.6046	1.2441
280.603	1.2412
280.6014	1.2382
281.049	1.2353
281.0475	1.2324
281.0459	1.2294
281.0444	1.2265
281.0428	1.2235
281.0413	1.2206
281.0397	1.2176
281.0382	1.2147
281.4857	1.2118
281.4842	1.2088
281.4826	1.2059
281.4811	1.2029
281.4795	1.2
281.478	1.1971
281.4764	1.1941
281.4748	1.1912
281.4733	1.1882
281.4718	1.1853
281.4702	1.1824
281.9178	1.1794
281.9162	1.1764
281.9146	1.1735
281.9131	1.1706
282.3607	1.1676
282.3592	1.1647
282.3576	1.1618
282.3559	1.1588
282.3545	1.1559
282.3529	1.1529
282.3514	1.15
282.799	1.1471
282.7974	1.1441
282.7959	1.1412
282.7943	1.1381
282.7928	1.1353
282.7912	1.1324
282.7896	1.1294
283.2372	1.1265
283.2357	1.1235
283.2341	1.1206
283.2326	1.1176
283.231	1.1147
283.6785	1.1118
283.6771	1.1088
283.6755	1.1059
283.6739	1.1029
283.6724	1.1
284.12	1.0971
284.1184	1.0941
284.1169	1.0912
284.1153	1.0882
284.5629	1.0853
285.0105	1.0824
285.4596	1.0824
285.4581	1.0794
285.4565	1.0765
285.9041	1.0735
285.9026	1.0706
285.901	1.0676
286.3486	1.0647
286.347	1.0618
286.3455	1.0588
286.7931	1.0559
286.7915	1.0529
287.2391	1.05
287.2375	1.0471
287.236	1.0441
287.6836	1.0412
287.682	1.0382
287.6804	1.0352
287.6789	1.0324
287.6774	1.0294
287.6758	1.0265
287.6743	1.0235
287.6726	1.0206
287.6711	1.0176
287.6696	1.0147
288.1172	1.0118
288.1156	1.0088
288.1141	1.0059
288.1125	1.0029
288.111	1.0
288.1094	0.9971
288.1078	0.9941
288.1063	0.9912
288.1047	0.9882
288.1032	0.9853
288.1016	0.9824
288.1001	0.9794
288.0985	0.9765
288.5461	0.9735
288.5446	0.9706
288.543	0.9676
288.5415	0.9647
288.5399	0.9618
288.5383	0.9588
288.5368	0.9559
288.5352	0.9529
288.5337	0.95
288.5321	0.9471
288.5306	0.9441
288.529	0.9412
288.5274	0.9382
288.5259	0.9353
288.5244	0.9324
288.9719	0.9294
288.9704	0.9264
288.9687	0.9235
288.9673	0.9205
288.9657	0.9176
288.9642	0.9146
288.9626	0.9118
288.9611	0.9088
288.9595	0.9059
288.958	0.9029
288.9564	0.9
288.9548	0.8971
288.9533	0.8941
288.9517	0.8912
289.3993	0.8881
289.3978	0.8853
289.3961	0.8824
289.3947	0.8794
289.3931	0.8765
289.3916	0.8735
289.39	0.8706
289.3885	0.8676
289.3869	0.8647
289.3853	0.8618
289.3838	0.8588
289.3822	0.8559
289.3807	0.8529
289.3791	0.85
289.3776	0.8471
289.376	0.8441
289.8235	0.8412
289.8221	0.8382
289.8205	0.8353
289.8189	0.8324
289.8174	0.8294
289.8157	0.8265
289.8143	0.8235
289.8127	0.8206
289.8112	0.8176
289.8096	0.8147
289.8081	0.8117
289.8065	0.8088
289.805	0.8058
289.8034	0.8029
290.251	0.8
290.2494	0.7971
290.2479	0.7941
290.2463	0.7912
290.2448	0.7882
290.2432	0.7852
290.2417	0.7824
290.2401	0.7793
290.6877	0.7765
290.6861	0.7734
290.6846	0.7706
290.683	0.7675
290.6815	0.7647
290.6799	0.7618
290.6784	0.7588
290.6768	0.7559
290.6753	0.7529
290.6737	0.75
290.6722	0.7471
291.1197	0.7441
291.1182	0.7412
291.1166	0.7382
291.1151	0.7353
291.1135	0.7324
291.112	0.7294
291.1104	0.7265
291.1089	0.7235
291.1073	0.7206
291.1058	0.7176
291.1042	0.7147
291.1026	0.7118
291.5502	0.7088
291.5487	0.7059
291.5471	0.7029
291.5455	0.7
291.544	0.6971
291.5425	0.6941
291.5409	0.6912
291.9885	0.6882
291.9868	0.6853
291.9854	0.6824
291.9838	0.6794
291.9823	0.6764
291.9807	0.6735
291.9792	0.6705
291.9776	0.6676
291.9761	0.6646
292.4237	0.6618
292.4221	0.6588
292.4205	0.6559
292.419	0.6529
292.8666	0.65
292.865	0.6471
292.8635	0.6441
292.8618	0.6412
293.3094	0.6381
293.3079	0.6353
293.3064	0.6324
293.3048	0.6294
293.7524	0.6265
293.7509	0.6235
293.7492	0.6206
294.1969	0.6176
294.1954	0.6147
294.1938	0.6118
294.1922	0.6088
294.1907	0.6059
294.1891	0.6029
294.1876	0.6
294.186	0.5971
294.6336	0.5941
294.632	0.5912
294.6305	0.5882
294.629	0.5853
294.6274	0.5824
294.6258	0.5794
295.0734	0.5765
295.0719	0.5735
295.0703	0.5706
295.5179	0.5676
295.5164	0.5647
295.5148	0.5617
295.9624	0.5588
295.9607	0.5558
296.4083	0.5529
296.4069	0.55
296.4053	0.5471
296.8529	0.5441
296.8513	0.5412
296.8498	0.5382
296.8481	0.5352
296.8467	0.5324
296.8451	0.5293
297.2927	0.5265
297.2912	0.5234
297.7388	0.5206
297.7372	0.5175
298.1863	0.5175
298.1848	0.5147
298.1832	0.5118
298.6308	0.5088
298.6293	0.5059
299.0769	0.5029
299.0753	0.5
299.0737	0.4971
299.5213	0.4941
299.5198	0.4912
299.9674	0.4882
299.9658	0.4853
299.9643	0.4824
299.9627	0.4794
300.4102	0.4765
300.4087	0.4735
300.8578	0.4735
300.8563	0.4706
301.3039	0.4676
301.3024	0.4647
301.7499	0.4618
301.7484	0.4588
302.196	0.4559
302.1944	0.4529
302.1929	0.45
302.1913	0.4471
302.1898	0.4441
302.6373	0.4412
302.6358	0.4382
303.0834	0.4353
303.531	0.4324
303.5293	0.4294
303.9769	0.4264
303.9754	0.4235
303.9739	0.4205
304.4215	0.4176
304.4199	0.4147
304.8675	0.4118
304.866	0.4088
305.3135	0.4059
305.312	0.4029
305.3104	0.4
305.758	0.3971
305.7565	0.3941
305.7549	0.3912
305.7534	0.3881
305.7518	0.3853
306.1994	0.3824
306.1978	0.3794
306.647	0.3794
306.6454	0.3765
307.093	0.3735
307.0915	0.3706
307.539	0.3676
307.5375	0.3647
307.5359	0.3618
307.5344	0.3588
307.5328	0.3559
307.9804	0.3529
307.9788	0.35
308.4264	0.3471
308.4249	0.3441
308.874	0.3441
308.8725	0.3412
308.8709	0.3382
309.3185	0.3353
309.317	0.3324
309.7646	0.3294
309.763	0.3265
309.7614	0.3235
310.209	0.3206
310.2075	0.3176
310.2059	0.3147
310.6535	0.3118
310.652	0.3088
310.6503	0.3059
311.098	0.3029
311.0964	0.3
311.0949	0.2971
311.0933	0.2941
311.5409	0.2912
311.5394	0.2882
311.9868	0.2852
312.4344	0.2824
312.433	0.2793
312.4314	0.2765
312.4299	0.2735
312.8775	0.2706
312.8759	0.2676
312.8742	0.2647
313.3219	0.2618
313.3204	0.2588
313.3188	0.2559
313.3173	0.2529
313.7649	0.25
313.7633	0.2471
313.7618	0.2441
313.7602	0.2412
313.7586	0.2382
314.2062	0.2353
314.6538	0.2324
314.6522	0.2294
314.6507	0.2265
314.6492	0.2235
314.6476	0.2206
315.0952	0.2176
315.5428	0.2147
315.5412	0.2118
315.5396	0.2088
315.9872	0.2059
315.9857	0.2029
315.9841	0.2
316.4317	0.1971
316.4302	0.1941
316.4285	0.1912
316.8761	0.1882
316.8747	0.1853
317.3222	0.1824
317.3207	0.1794
317.3191	0.1764
317.7667	0.1735
317.7652	0.1706
318.2128	0.1676
318.6602	0.1647
318.6588	0.1618
318.6572	0.1588
319.1048	0.1559
319.1033	0.1529
319.5509	0.15
319.9984	0.1471
319.9969	0.1441
320.4445	0.1412
320.4429	0.1381
320.8904	0.1353
320.889	0.1324
321.3365	0.1294
321.335	0.1265
321.3334	0.1235
321.7826	0.1235
322.2302	0.1206
322.6778	0.1176
322.6762	0.1147
323.1238	0.1118
323.5714	0.1088
324.019	0.1059
324.4665	0.1029
324.9141	0.1
325.3633	0.1
325.8109	0.0971
326.26	0.0971
326.7076	0.0941
327.1552	0.0912
327.6042	0.0912
328.0519	0.0882
328.501	0.0882
328.9485	0.0853
329.3978	0.0853
329.8469	0.0853
330.2945	0.0824
330.7421	0.0794
331.1912	0.0794
331.6404	0.0794
332.088	0.0765
332.5371	0.0765
332.9862	0.0765
333.4354	0.0765
333.883	0.0735
334.3321	0.0735
334.7812	0.0735
335.2304	0.0735
335.6795	0.0735
336.1271	0.0706
336.5763	0.0706
337.0254	0.0706
337.4746	0.0706
337.9237	0.0706
338.3713	0.0676
338.8204	0.0676
339.2696	0.0676
339.7187	0.0676
340.1663	0.0647
340.6154	0.0647
341.0646	0.0647
341.5137	0.0647
341.9613	0.0618
342.4104	0.0618
342.8596	0.0618
343.3087	0.0618
343.7563	0.0588
344.2055	0.0588
344.6545	0.0588
345.1037	0.0588
345.5529	0.0588
346.002	0.0588
346.4496	0.0559
346.8987	0.0559
347.3479	0.0559
347.797	0.0559
348.2446	0.0529
348.6938	0.0529
349.1429	0.0529
349.592	0.0529
350.0412	0.0529
350.4903	0.0529
350.9379	0.05
351.3871	0.05
351.8362	0.05
352.2852	0.05
352.7345	0.05
353.1821	0.0471
353.6312	0.0471
354.0803	0.0471
354.5295	0.0471
354.9786	0.0471
355.4262	0.0441
355.8754	0.0441
356.3245	0.0441
356.7736	0.0441
357.2227	0.0441
357.6719	0.0441
358.1195	0.0412
358.5687	0.0412
359.0178	0.0412
359.4668	0.0412
359.9161	0.0412
360.3652	0.0412
360.8144	0.0412
361.2619	0.0382
361.7111	0.0382
362.1602	0.0382
362.6094	0.0382
363.0585	0.0382
363.5077	0.0382
363.9567	0.0382
364.4059	0.0382
364.8551	0.0382
365.3027	0.0352
365.7518	0.0352
366.2009	0.0352
366.6501	0.0352
367.0992	0.0352
367.5484	0.0352
367.9975	0.0352
368.4466	0.0352
368.8958	0.0352
369.3449	0.0352
369.7925	0.0324
370.2417	0.0324
370.6907	0.0324
371.1399	0.0324
371.5891	0.0324
372.0382	0.0324
372.4874	0.0324
372.9365	0.0324
373.3857	0.0324
373.8332	0.0294
374.2824	0.0294
374.7315	0.0294
375.1807	0.0294
375.6298	0.0294
376.0789	0.0294
376.5281	0.0294
376.9771	0.0294
377.4248	0.0265
377.874	0.0265
378.3231	0.0265
378.7722	0.0265
379.2214	0.0265
379.6705	0.0265
380.1197	0.0265
380.5688	0.0265
381.018	0.0265
381.4671	0.0265
381.9162	0.0265
382.3654	0.0265
382.813	0.0235
383.2621	0.0235
383.7112	0.0235
384.1604	0.0235
384.6095	0.0235
385.0587	0.0235
385.5078	0.0235
385.9569	0.0235
386.4061	0.0235
386.8537	0.0206
387.3044	0.0235
387.7534	0.0235
388.2027	0.0235
388.6518	0.0235
389.1009	0.0235
389.5501	0.0235
389.9992	0.0235
390.4484	0.0235
390.8975	0.0235
391.3466	0.0235
391.7957	0.0235
392.2449	0.0235
392.6941	0.0235
393.1432	0.0235
393.5924	0.0235
394.0415	0.0235
394.4906	0.0235
394.9398	0.0235
395.3889	0.0235
395.838	0.0235
396.2872	0.0235
396.7363	0.0235
397.1855	0.0235
397.6346	0.0235
398.0838	0.0235
398.5329	0.0235
398.982	0.0235
399.4312	0.0235
399.8803	0.0235
400.3295	0.0235
400.7786	0.0235
401.2278	0.0235
401.6768	0.0235
402.126	0.0235
402.5752	0.0235
403.0243	0.0235
403.4735	0.0235
403.9226	0.0235
404.3733	0.0265
404.8224	0.0265
405.2716	0.0265
405.7207	0.0265
406.1699	0.0265
406.619	0.0265
407.0681	0.0265
407.5173	0.0265
407.9664	0.0265
408.4156	0.0265
408.8647	0.0265
409.3139	0.0265
409.763	0.0265
410.2121	0.0265
410.6613	0.0265
411.1104	0.0265
411.5611	0.0294
412.0103	0.0294
412.4594	0.0294
412.9085	0.0294
413.3577	0.0294
413.8068	0.0294
414.256	0.0294
414.705	0.0294
415.1542	0.0294
415.6034	0.0294
416.0525	0.0294
416.5017	0.0294
416.9508	0.0294
417.4	0.0294
417.8491	0.0294
418.2982	0.0294
418.7473	0.0294
419.1965	0.0294
419.6457	0.0294
420.0948	0.0294
420.5439	0.0294
420.9931	0.0294
421.4422	0.0294
421.8914	0.0294
422.3405	0.0294
422.7896	0.0294
423.2403	0.0324
423.6895	0.0324
424.1386	0.0324
424.5878	0.0324
425.0369	0.0324
425.4861	0.0324
425.9352	0.0324
426.3843	0.0324
426.835	0.0352
427.2842	0.0352
427.7332	0.0352
428.1825	0.0352
428.6316	0.0352
429.0807	0.0352
429.5299	0.0352
429.979	0.0352
430.4282	0.0352
430.8773	0.0352
431.3264	0.0352
431.7755	0.0352
432.2247	0.0352
432.6739	0.0352
433.123	0.0352
433.5722	0.0352
434.0213	0.0352
434.472	0.0382
434.9211	0.0382
435.3703	0.0382
435.8194	0.0382
436.2686	0.0382
436.7177	0.0382
437.1668	0.0382
437.616	0.0382
438.0651	0.0382
438.5143	0.0382
438.9634	0.0382
439.4125	0.0382
439.8617	0.0382
440.3108	0.0382
440.76	0.0382
441.2091	0.0382
441.6582	0.0382
442.1074	0.0382
442.5565	0.0382
443.0057	0.0382
443.4548	0.0382
443.904	0.0382
444.3531	0.0382
444.8022	0.0382
445.2514	0.0382
445.7005	0.0382
446.1497	0.0382
446.5988	0.0382
447.0479	0.0382
447.4971	0.0382
447.9462	0.0382
448.3954	0.0382
448.8445	0.0382
449.2937	0.0382
449.7428	0.0382
450.1919	0.0382
450.6411	0.0382
451.0902	0.0382
451.5394	0.0382
451.9885	0.0382
452.4376	0.0382
452.8868	0.0382
453.3359	0.0382
453.7851	0.0382
454.2342	0.0382
454.6833	0.0382
455.1325	0.0382
455.5816	0.0382
456.0308	0.0382
456.4799	0.0382
456.9291	0.0382
457.3782	0.0382
457.8273	0.0382
458.2765	0.0382
458.7256	0.0382
459.1748	0.0382
459.6239	0.0382
460.073	0.0382
460.5206	0.0352
460.9698	0.0352
461.4189	0.0352
461.8681	0.0352
462.3172	0.0352
462.7663	0.0352
463.2155	0.0352
463.6646	0.0352
464.1138	0.0352
464.5629	0.0352
465.012	0.0352
465.4612	0.0352
465.9102	0.0352
466.3595	0.0352
466.8086	0.0352
467.2578	0.0352
467.7069	0.0352
468.156	0.0352
468.6052	0.0352
469.0543	0.0352
469.5034	0.0352
469.9526	0.0352
470.4017	0.0352
470.8509	0.0352
471.3	0.0352
471.7492	0.0352
472.1983	0.0352
472.6474	0.0352
473.0966	0.0352
473.5457	0.0352
473.9933	0.0324
474.4425	0.0324
474.8916	0.0324
475.3407	0.0324
475.7899	0.0324
476.2389	0.0324
476.6882	0.0324
477.1373	0.0324
477.5864	0.0324
478.0356	0.0324
478.4847	0.0324
478.9323	0.0294
479.3815	0.0294
479.8306	0.0294
480.2797	0.0294
480.7288	0.0294
481.178	0.0294
481.6256	0.0265
482.0748	0.0265
482.5239	0.0265
482.9729	0.0265
483.4222	0.0265
483.8713	0.0265
484.3205	0.0265
484.7696	0.0265
485.2172	0.0235
485.6663	0.0235
486.1155	0.0235
486.5646	0.0235
487.0138	0.0235
487.4613	0.0206
487.9104	0.0206
488.3596	0.0206
488.8088	0.0206
489.2579	0.0206
489.7055	0.0176
490.1546	0.0176
490.6038	0.0176
