#wavelength	Nectadamas diomedeae	Nectadamas diomedeae
#CALIB2.PRN	FILE367.PRN	FILE393.PRN
1	1	1
1	1	1
701	701	701
330.186	-23.702	67.5368
330.691	-23.9927	67.0594
331.196	-24.3246	66.4657
331.7	-24.6944	65.7556
332.205	-25.1011	64.9221
332.71	-25.5414	63.9452
333.215	-26.0116	62.8085
333.72	-26.5043	61.4937
334.224	-27.0055	59.9925
334.729	-27.4985	58.3013
335.234	-27.9695	56.422
335.739	-28.4051	54.3571
336.243	-28.7894	52.1256
336.748	-29.1017	49.7589
337.253	-29.3581	47.2612
337.758	-29.5633	44.6693
338.262	-29.72	42.0082
338.767	-29.862	39.3037
339.272	-30.0147	36.6033
339.777	-30.1661	33.9667
340.282	-30.3029	31.4439
340.786	-30.4355	29.0947
341.291	-30.573	26.9729
341.796	-30.7243	25.1171
342.301	-30.8953	23.5747
342.805	-31.0927	22.3886
343.31	-31.3381	21.6036
343.815	-31.6381	21.2301
344.32	-32.0064	21.2571
344.824	-32.4413	21.6476
345.329	-32.932	22.3719
345.834	-33.4466	23.393
346.339	-33.9415	24.6849
346.843	-34.3833	26.2132
347.348	-34.7417	27.9545
347.853	-34.9819	29.8718
348.358	-35.0717	31.9385
348.863	-34.9836	34.1289
349.367	-34.7122	36.4142
349.872	-34.2485	38.7338
350.377	-33.5912	41.0557
350.882	-32.7541	43.3639
351.386	-31.7227	45.6688
351.891	-30.4751	47.9806
352.396	-29.0384	50.2999
352.901	-27.47	52.6439
353.405	-25.8089	55.0085
353.91	-24.1009	57.4037
354.415	-22.4011	59.843
354.92	-20.7765	62.3359
355.425	-19.3056	64.8838
355.929	-18.0288	67.4726
356.434	-16.9969	70.0747
356.939	-16.2195	72.6385
357.444	-15.6927	75.1354
357.948	-15.3879	77.5388
358.453	-15.2706	79.8357
358.958	-15.3128	82.0017
359.463	-15.479	84.016
359.967	-15.726	85.8116
360.472	-16.0123	87.3388
360.977	-16.3009	88.5581
361.482	-16.5582	89.4224
361.986	-16.7324	89.9011
362.491	-16.787	90.0054
362.996	-16.6858	89.7458
363.501	-16.3953	89.1501
364.006	-15.9021	88.2479
364.51	-15.225	87.0853
365.015	-14.3858	85.7292
365.52	-13.3912	84.236
366.025	-12.2823	82.6921
366.529	-11.1197	81.1669
367.034	-9.97018	79.7372
367.539	-8.89497	78.4636
368.044	-7.92511	77.3924
368.548	-7.09057	76.5483
369.053	-6.39736	75.9368
369.558	-5.85076	75.5897
370.063	-5.4433	75.5398
370.567	-5.16983	75.8174
371.072	-5.03626	76.4259
371.577	-5.04879	77.3515
372.082	-5.20678	78.5576
372.587	-5.50998	80.0354
373.091	-5.9665	81.7572
373.596	-6.5582	83.6768
374.101	-7.25265	85.7686
374.606	-8.02916	88.0136
375.11	-8.857	90.3922
375.615	-9.70556	92.8937
376.12	-10.5386	95.5217
376.625	-11.3224	98.3085
377.129	-12.0258	101.283
377.634	-12.6222	104.469
378.139	-13.1043	107.893
378.644	-13.4569	111.578
379.149	-13.6605	115.554
379.653	-13.6798	119.84
380.158	-13.475	124.458
380.663	-13.0122	129.429
381.168	-12.2715	134.764
381.672	-11.2352	140.513
382.177	-9.90731	146.728
382.682	-8.30701	153.464
383.187	-6.46717	160.743
383.691	-4.42164	168.58
384.196	-2.20691	176.989
384.701	0.133042	185.98
385.206	2.54777	195.526
385.71	5.01855	205.627
386.215	7.52293	216.32
386.72	10.0372	227.639
387.225	12.5494	239.63
387.73	15.0581	252.352
388.234	17.5662	265.883
388.739	20.0722	280.309
389.244	22.569	295.715
389.749	25.0655	312.18
390.253	27.5839	329.771
390.758	30.1387	348.593
391.263	32.7348	368.717
391.768	35.3993	390.175
392.272	38.1423	412.974
392.777	40.9635	437.125
393.282	43.8574	462.576
393.787	46.8283	489.29
394.291	49.8655	517.219
394.796	52.9718	546.304
395.301	56.155	576.426
395.806	59.4267	607.479
396.311	62.7697	639.359
396.815	66.1722	671.97
397.32	69.6412	705.2
397.825	73.2075	739.042
398.33	76.8965	773.522
398.834	80.7278	808.639
399.339	84.7256	844.417
399.844	88.9207	880.908
400.349	93.3293	918.183
400.853	97.9563	956.353
401.358	102.814	995.573
401.863	107.926	1035.97
402.368	113.283	1077.64
402.873	118.853	1120.72
403.377	124.617	1165.2
403.882	130.566	1211.08
404.387	136.66	1258.32
404.892	142.862	1306.89
405.396	149.158	1356.68
405.901	155.542	1407.58
406.406	161.994	1459.51
406.911	168.498	1512.37
407.415	175.037	1566.05
407.92	181.58	1620.45
408.425	188.08	1675.44
408.93	194.553	1730.96
409.434	201.031	1786.92
409.939	207.527	1843.34
410.444	214.053	1900.14
410.949	220.609	1957.17
411.454	227.216	2014.35
411.958	233.896	2071.65
412.463	240.642	2129.02
412.968	247.443	2186.49
413.473	254.311	2244.03
413.977	261.234	2301.6
414.482	268.181	2359.09
414.987	275.154	2416.48
415.492	282.134	2473.63
415.996	289.089	2530.49
416.501	295.985	2586.92
417.006	302.812	2642.81
417.511	309.575	2698.01
418.015	316.254	2752.47
418.52	322.809	2806.16
419.025	329.206	2859.03
419.53	335.412	2911.02
420.035	341.387	2962.03
420.539	347.121	3012.01
421.044	352.64	3060.96
421.549	357.95	3108.88
422.054	363.04	3155.73
422.558	367.936	3201.43
423.063	372.655	3245.9
423.568	377.243	3289.19
424.073	381.73	3331.38
424.577	386.112	3372.52
425.082	390.41	3412.69
425.587	394.66	3451.95
426.092	398.877	3490.4
426.597	403.079	3528.13
427.101	407.278	3565.24
427.606	411.454	3601.79
428.111	415.622	3637.8
428.616	419.793	3673.22
429.12	423.973	3708.05
429.625	428.145	3742.32
430.13	432.252	3776.05
430.635	436.219	3809.17
431.139	439.981	3841.54
431.644	443.486	3873.09
432.149	446.689	3903.7
432.654	449.58	3933.3
433.158	452.149	3961.83
433.663	454.398	3989.19
434.168	456.337	4015.27
434.673	458.018	4039.92
435.178	459.486	4063.11
435.682	460.813	4084.82
436.187	462.029	4105.05
436.692	463.169	4123.74
437.197	464.311	4140.92
437.701	465.529	4156.52
438.206	466.863	4170.63
438.711	468.358	4183.28
439.216	470.034	4194.45
439.72	471.93	4204.06
440.225	474.071	4212.1
440.73	476.406	4218.52
441.235	478.862	4223.38
441.74	481.34	4226.74
442.244	483.718	4228.58
442.749	485.885	4228.87
443.254	487.758	4227.64
443.759	489.258	4225.04
444.263	490.318	4221.14
444.768	490.89	4216.04
445.273	490.933	4209.86
445.778	490.444	4202.75
446.282	489.424	4194.81
446.787	487.922	4186.16
447.292	485.984	4177.02
447.797	483.661	4167.45
448.301	480.992	4157.54
448.806	478.069	4147.33
449.311	474.991	4136.88
449.816	471.848	4126.19
450.321	468.722	4115.35
450.825	465.697	4104.3
451.33	462.828	4092.81
451.835	460.173	4080.76
452.34	457.734	4068.1
452.844	455.468	4054.71
453.349	453.342	4040.44
453.854	451.32	4025.09
454.359	449.37	4008.42
454.863	447.48	3990.3
455.368	445.623	3970.64
455.873	443.766	3949.42
456.378	441.883	3926.62
456.882	439.968	3902.25
457.387	438.001	3876.49
457.892	435.972	3849.53
458.397	433.857	3821.58
458.902	431.646	3792.83
459.406	429.308	3763.49
459.911	426.816	3733.73
460.416	424.15	3703.86
460.921	421.326	3674.17
461.425	418.352	3644.94
461.93	415.266	3616.41
462.435	412.083	3588.71
462.94	408.809	3561.83
463.444	405.438	3535.76
463.949	401.971	3510.58
464.454	398.387	3486.21
464.959	394.656	3462.36
465.464	390.76	3438.71
465.968	386.71	3414.98
466.473	382.543	3390.88
466.978	378.289	3366.21
467.483	373.96	3340.71
467.987	369.578	3314.24
468.492	365.172	3286.68
468.997	360.774	3257.93
469.502	356.38	3228.04
470.006	352	3197.04
470.511	347.618	3164.91
471.016	343.222	3131.69
471.521	338.818	3097.53
472.025	334.43	3062.74
472.53	330.095	3027.71
473.035	325.867	2992.69
473.54	321.797	2957.98
474.045	317.935	2923.7
474.549	314.298	2889.99
475.054	310.903	2856.95
475.559	307.758	2824.79
476.064	304.866	2793.52
476.568	302.218	2763.11
477.073	299.79	2733.46
477.578	297.571	2704.55
478.083	295.582	2676.36
478.587	293.82	2648.79
479.092	292.254	2621.73
479.597	290.834	2595.03
480.102	289.521	2568.65
480.606	288.268	2542.43
481.111	287.033	2516.25
481.616	285.743	2490.07
482.121	284.334	2463.76
482.626	282.743	2437.18
483.13	280.943	2410.31
483.635	278.952	2383.26
484.14	276.782	2356.2
484.645	274.427	2329.15
485.149	271.889	2302.12
485.654	269.163	2275.17
486.159	266.26	2248.3
486.664	263.193	2221.66
487.168	259.99	2195.41
487.673	256.677	2169.77
488.178	253.284	2144.85
488.683	249.846	2120.81
489.188	246.399	2097.77
489.692	242.989	2075.81
490.197	239.667	2054.89
490.702	236.459	2034.97
491.207	233.38	2015.97
491.711	230.432	1997.82
492.216	227.626	1980.4
492.721	224.957	1963.51
493.226	222.406	1946.96
493.73	219.938	1930.54
494.235	217.546	1913.94
494.74	215.242	1896.92
495.245	213.027	1879.3
495.749	210.92	1860.98
496.254	208.87	1841.77
496.759	206.82	1821.51
497.264	204.742	1800.18
497.769	202.614	1777.8
498.273	200.44	1754.45
498.778	198.208	1730.35
499.283	195.932	1705.71
499.788	193.615	1680.75
500.292	191.275	1655.67
500.797	188.956	1630.65
501.302	186.666	1605.89
501.807	184.426	1581.54
502.311	182.252	1557.7
502.816	180.155	1534.5
503.321	178.132	1512.07
503.826	176.169	1490.52
504.33	174.254	1469.89
504.835	172.35	1450.14
505.34	170.43	1431.25
505.845	168.496	1413.16
506.35	166.555	1395.81
506.854	164.599	1379.15
507.359	162.612	1363.12
507.864	160.577	1347.65
508.369	158.44	1332.65
508.873	156.178	1318.1
509.378	153.791	1303.96
509.883	151.286	1290.17
510.388	148.668	1276.69
510.892	145.939	1263.51
511.397	143.127	1250.52
511.902	140.236	1237.63
512.407	137.284	1224.75
512.911	134.288	1211.78
513.416	131.238	1198.61
513.921	128.168	1185.13
514.426	125.106	1171.23
514.931	122.076	1156.86
515.435	119.101	1142.03
515.94	116.194	1126.74
516.445	113.365	1111
516.95	110.621	1094.84
517.454	108.007	1078.37
517.959	105.561	1061.71
518.464	103.319	1044.97
518.969	101.299	1028.27
519.473	99.5186	1011.76
519.978	97.9757	995.587
520.483	96.6576	979.831
520.988	95.5562	964.577
521.493	94.6658	949.895
521.997	93.9695	935.852
522.502	93.4205	922.484
523.007	92.974	909.779
523.512	92.5731	897.698
524.016	92.1466	886.195
524.521	91.6551	875.207
525.026	91.0789	864.626
525.531	90.4174	854.37
526.035	89.6765	844.343
526.54	88.8494	834.499
527.045	87.9429	824.79
527.55	86.9758	815.17
528.054	85.9496	805.607
528.559	84.8695	796.09
529.064	83.7714	786.65
529.569	82.6978	777.328
530.074	81.6787	768.115
530.578	80.7467	759.018
531.083	79.9119	750.073
531.588	79.1833	741.305
532.093	78.5518	732.661
532.597	77.9971	724.092
533.102	77.4797	715.578
533.607	76.9491	707.129
534.112	76.3398	698.722
534.616	75.5896	690.277
535.121	74.6545	681.75
535.626	73.4853	673.112
536.131	72.0753	664.336
536.636	70.4446	655.44
537.14	68.6279	646.436
537.645	66.6625	637.369
538.15	64.5679	628.308
538.655	62.3855	619.314
539.159	60.1754	610.427
539.664	58.0022	601.728
540.169	55.9033	593.316
540.674	53.9412	585.256
541.178	52.1832	577.601
541.683	50.67	570.351
542.188	49.4288	563.511
542.693	48.4749	557.087
543.197	47.8021	551.039
543.702	47.3923	545.301
544.207	47.1852	539.763
544.712	47.1055	534.341
545.217	47.0707	528.931
545.721	46.9958	523.437
546.226	46.8237	517.702
546.731	46.515	511.6
547.236	46.0205	505.074
547.74	45.2973	498.099
548.245	44.3501	490.694
548.75	43.1812	482.904
549.255	41.8055	474.768
549.759	40.256	466.355
550.264	38.5698	457.777
550.769	36.809	449.135
551.274	35.0514	440.543
551.778	33.3636	432.103
552.283	31.7904	423.879
552.788	30.3982	415.905
553.293	29.2106	408.233
553.798	28.2441	400.895
554.302	27.5027	393.948
554.807	26.9811	387.39
555.312	26.6645	381.203
555.817	26.5035	375.37
556.321	26.436	369.844
556.826	26.4321	364.585
557.331	26.4597	359.536
557.836	26.4804	354.657
558.34	26.4765	349.892
558.845	26.4113	345.236
559.35	26.2429	340.708
559.855	25.965	336.33
560.36	25.6034	332.103
560.864	25.1606	328.015
561.369	24.6614	324.068
561.874	24.1573	320.275
562.379	23.6917	316.673
562.883	23.305	313.267
563.388	23.0276	310.032
563.893	22.8622	306.911
564.398	22.8075	303.853
564.902	22.8636	300.836
565.407	22.9961	297.843
565.912	23.1859	294.835
566.417	23.3989	291.797
566.921	23.6021	288.678
567.426	23.765	285.475
567.931	23.8375	282.178
568.436	23.8034	278.787
568.941	23.6547	275.301
569.445	23.3477	271.711
569.95	22.844	268.02
570.455	22.1089	264.23
570.96	21.1176	260.367
571.464	19.8797	256.456
571.969	18.4176	252.498
572.474	16.7597	248.485
572.979	14.9226	244.448
573.483	12.9727	240.434
573.988	10.9765	236.492
574.493	8.98085	232.687
574.998	7.0216	229.049
575.502	5.14311	225.612
576.007	3.39446	222.4
576.512	1.82377	219.424
577.017	0.469639	216.704
577.522	-0.642358	214.225
578.026	-1.48045	211.988
578.531	-2.01652	209.993
579.036	-2.2273	208.212
579.541	-2.09371	206.632
580.045	-1.62913	205.195
580.55	-0.846018	203.844
581.055	0.215092	202.478
581.56	1.4904	200.99
582.065	2.9152	199.314
582.569	4.41731	197.385
583.074	5.95378	195.155
583.579	7.4821	192.584
584.084	8.93828	189.627
584.588	10.2827	186.291
585.093	11.4703	182.626
585.598	12.4811	178.697
586.103	13.2734	174.587
586.607	13.8105	170.402
587.112	14.0723	166.237
587.617	14.0587	162.188
588.122	13.7704	158.302
588.626	13.2112	154.621
589.131	12.4091	151.202
589.636	11.389	148.093
590.141	10.1908	145.339
590.645	8.86548	142.951
591.15	7.45454	140.927
591.655	6.01011	139.255
592.16	4.56472	137.891
592.665	3.16034	136.784
593.169	1.83211	135.838
593.674	0.600293	135.014
594.179	-0.520541	134.288
594.684	-1.49279	133.602
595.188	-2.27647	132.904
595.693	-2.86035	132.155
596.198	-3.24934	131.317
596.703	-3.43496	130.402
597.207	-3.44498	129.43
597.712	-3.29862	128.428
598.217	-3.0369	127.415
598.722	-2.70914	126.407
599.227	-2.35311	125.381
599.731	-2.02282	124.288
600.236	-1.76599	123.072
600.741	-1.61845	121.715
601.246	-1.61287	120.198
601.75	-1.79457	118.512
602.255	-2.17398	116.655
602.76	-2.73239	114.641
603.265	-3.45643	112.494
603.769	-4.31288	110.232
604.274	-5.2739	107.877
604.779	-6.30094	105.455
605.284	-7.35514	103.01
605.789	-8.39717	100.64
606.293	-9.36083	98.4011
606.798	-10.1727	96.3399
607.303	-10.7928	94.5095
607.808	-11.1854	92.9845
608.312	-11.3084	91.8198
608.817	-11.1326	91.087
609.322	-10.6756	90.8174
609.827	-9.95354	91.016
610.331	-9.00838	91.6257
610.836	-7.88354	92.5562
611.341	-6.6259	93.6843
611.846	-5.31207	94.89
612.35	-3.99636	96.0606
612.855	-2.75617	97.0888
613.36	-1.66443	97.8691
613.865	-0.765889	98.3221
614.369	-0.0760572	98.4009
614.874	0.394342	98.0684
615.379	0.603784	97.2827
615.884	0.534546	96.041
616.389	0.188422	94.3849
616.893	-0.427893	92.3756
617.398	-1.29322	90.0919
617.903	-2.35927	87.6228
618.408	-3.55814	85.0539
618.912	-4.84465	82.4635
619.417	-6.15844	79.9549
619.922	-7.42617	77.6429
620.427	-8.59442	75.5957
620.931	-9.64843	73.8765
621.436	-10.5824	72.4955
621.941	-11.3696	71.4439
622.446	-11.9989	70.6749
622.951	-12.4708	70.1513
623.455	-12.8124	69.8243
623.96	-13.0544	69.6513
624.465	-13.2334	69.5875
624.97	-13.4334	69.5928
625.474	-13.7023	69.6373
625.979	-14.081	69.6969
626.484	-14.6226	69.751
626.989	-15.3821	69.7578
627.493	-16.4135	69.7132
627.998	-17.7198	69.6364
628.503	-19.2796	69.5311
629.008	-21.0784	69.3723
629.513	-23.0805	69.1242
630.017	-25.216	68.7691
630.522	-27.4047	68.2965
631.027	-29.5681	67.6828
631.532	-31.5995	66.9509
632.036	-33.4227	66.1125
632.541	-34.9822	65.1333
633.046	-36.222	64.0067
633.551	-37.0732	62.7207
634.055	-37.4824	61.3036
634.56	-37.4251	59.7955
635.065	-36.882	58.235
635.57	-35.8479	56.6515
636.074	-34.356	55.0972
636.579	-32.5039	53.6054
637.084	-30.397	52.2013
637.589	-28.1059	50.9263
638.093	-25.7145	49.8016
638.598	-23.3057	48.8319
639.103	-20.9499	48.0366
639.608	-18.7056	47.4334
640.113	-16.6219	46.9826
640.617	-14.7556	46.6003
641.122	-13.1808	46.2151
641.627	-11.9444	45.7835
642.132	-11.0551	45.2821
642.636	-10.5194	44.6996
643.141	-10.3522	44.0519
643.646	-10.5506	43.3586
644.151	-11.1373	42.6225
644.655	-12.1185	41.8017
645.16	-13.472	40.8954
645.665	-15.166	39.9161
646.17	-17.1505	38.9038
646.675	-19.3381	37.8646
647.179	-21.6249	36.7729
647.684	-23.9389	35.5986
648.189	-26.2572	34.3357
648.694	-28.5424	32.9597
649.198	-30.7005	31.4859
649.703	-32.6294	29.9473
650.208	-34.2308	28.3281
650.713	-35.4258	26.6323
651.217	-36.149	24.8847
651.722	-36.3707	23.0721
652.227	-36.105	21.188
652.732	-35.3854	19.2462
653.236	-34.2641	17.3438
653.741	-32.771	15.5798
654.246	-30.957	14.0524
654.751	-28.9168	12.8677
655.256	-26.7601	12.1363
655.76	-24.6147	11.8838
656.265	-22.6389	12.1137
656.77	-20.9423	12.7705
657.275	-19.6067	13.8444
657.779	-18.7042	15.3161
658.284	-18.2591	17.126
658.789	-18.2733	19.1607
659.294	-18.7591	21.2962
659.798	-19.7314	23.4294
660.303	-21.1733	25.5053
660.808	-22.998	27.4439
661.313	-25.0903	29.1809
661.817	-27.3289	30.6235
662.322	-29.5729	31.6847
662.827	-31.7093	32.326
663.332	-33.6236	32.5209
663.837	-35.2355	32.2622
664.341	-36.4757	31.5934
664.846	-37.2733	30.5727
665.351	-37.5741	29.3162
665.856	-37.3424	27.8952
666.36	-36.6241	26.4096
666.865	-35.4995	24.9485
667.37	-34.0659	23.587
667.875	-32.4643	22.3438
668.38	-30.8104	21.2685
668.884	-29.1884	20.3858
669.389	-27.7192	19.7613
669.894	-26.5336	19.3981
670.399	-25.7357	19.2705
670.903	-25.4228	19.3489
671.408	-25.6742	19.5978
671.913	-26.5228	19.9894
672.418	-27.9518	20.4794
672.922	-29.901	20.9647
673.427	-32.2829	21.3537
673.932	-34.9754	21.5566
674.437	-37.8401	21.5089
674.941	-40.762	21.1418
675.446	-43.61	20.4096
675.951	-46.2697	19.2958
676.456	-48.6273	17.7966
676.96	-50.5896	15.9156
677.465	-52.0555	13.6475
677.97	-53.0282	11.0692
678.475	-53.5454	8.28029
678.98	-53.6428	5.36259
679.484	-53.3678	2.40167
679.989	-52.7813	-0.524702
680.494	-51.932	-3.32925
680.999	-50.8946	-5.94638
681.503	-49.7677	-8.31054
682.008	-48.6359	-10.3944
682.513	-47.5659	-12.166
683.018	-46.6124	-13.6078
683.522	-1.357E+023	-1.357E+023
1463	1463	1463
1024	1024	1024
0	0	0
5	20	10
0.0116445	0.0116445	0.0116445
0	0	0
60	60	60
1	2	2
1	1	1
1	1	1
1	1	1
0	0	0
12	12	12
700	700	700
0	0	0
0	0	0
144	144	144
700	700	700
1	1	1
1	1	1
400	400	400
248	366	391
0	0	0
0	0	0
0	0	0
0	0	0
0	0	0
0	0	0
0	0	0
0	0	0
0	0	0
0	0	0
20	20	20
0	0	0
1	1	1
2	2	2
257.5	257.5	257.5
0.504766	0.504766	0.504766
0	0	0
0	0	0
0	0	0
0	0	0
0	0	0
0	0	0
0	0	0
0	0	0
0	0	0
0	0	0
0	0	0
0	0	0
0	0	0
0	0	0
0	0	0
0	0	0
0	0	0
0	0	0
0	0	0
0	0	0
0	0	0
0	0	0
0	0	0
0	0	0
0	0	0
0	0	0
0	0	0
0	0	0
0	0	0
0	0	0
0	0	0
0	0	0
0	0	0
0	0	0
0	0	0
0	0	0
0	0	0
0	0	0
0	0	0
0	0	0
0	0	0
0	0	0
0	0	0
0	0	0
0	0	0
0	0	0
0	0	0
0	0	0
0	0	0
0	0	0
