414.5375	-8.3476e-4
414.8679	-8.3564e-4
415.1981	7.5584e-4
415.5285	7.5497e-4
415.8586	2.3464e-3
416.1888	3.9379e-3
416.5192	3.9371e-3
416.8496	3.9362e-3
417.18	3.9353e-3
417.5104	3.9344e-3
417.8408	3.9335e-3
418.1712	3.9327e-3
418.5016	3.9318e-3
418.8319	3.9309e-3
419.1623	3.93e-3
419.4927	3.9292e-3
419.8231	3.9283e-3
420.1535	3.9274e-3
420.4839	3.9265e-3
420.8143	3.9257e-3
421.1445	5.5171e-3
421.4748	5.5163e-3
421.8053	5.5154e-3
422.1357	5.5145e-3
422.466	5.5136e-3
422.7964	5.5127e-3
423.1268	5.5119e-3
423.4572	5.511e-3
423.7875	5.5101e-3
424.1179	5.5092e-3
424.4484	5.5084e-3
424.7786	7.0998e-3
425.109	7.099e-3
425.4394	7.0981e-3
425.7698	7.0972e-3
426.1001	7.0963e-3
426.4304	7.0955e-3
426.7609	7.0946e-3
427.0913	7.0937e-3
427.4217	7.0928e-3
427.7521	7.092e-3
428.0825	7.0911e-3
428.4129	7.0902e-3
428.7433	7.0893e-3
429.0737	7.0884e-3
429.4041	7.0876e-3
429.7345	7.0867e-3
430.0646	8.6782e-3
430.395	8.6773e-3
430.7254	8.6764e-3
431.0558	8.6755e-3
431.386	0.0103
431.7164	0.0103
432.0468	0.0103
432.3772	0.0103
432.7076	0.0103
433.0377	0.0119
433.3681	0.0119
433.6985	0.0119
434.0289	0.0119
434.359	0.0134
434.6894	0.0134
435.0198	0.0134
435.3502	0.0134
435.6806	0.0134
436.0107	0.015
436.3411	0.015
436.6715	0.015
437.0017	0.0166
437.3321	0.0166
437.6625	0.0166
437.9928	0.0166
438.323	0.0182
438.6534	0.0182
438.9835	0.0198
439.3139	0.0198
439.6442	0.0198
439.9747	0.0198
440.3051	0.0198
440.6352	0.0214
440.9654	0.023
441.2958	0.023
441.6261	0.023
441.9563	0.0246
442.2867	0.0246
442.6168	0.0262
442.947	0.0278
442.9466	0.0293
443.2771	0.0293
443.6072	0.0309
443.9376	0.0309
444.2678	0.0325
444.5981	0.0325
444.9283	0.0341
445.2584	0.0357
445.5886	0.0373
445.5883	0.0389
445.9184	0.0405
445.9182	0.0421
446.2486	0.0421
446.2483	0.0437
446.5784	0.0453
446.5782	0.0469
446.9083	0.0484
446.908	0.05
447.2382	0.0516
447.2379	0.0532
447.568	0.0548
447.8982	0.0564
447.8979	0.058
447.8976	0.0596
448.2278	0.0612
448.5579	0.0628
448.5575	0.0644
448.8878	0.066
448.8875	0.0675
449.2177	0.0691
449.2174	0.0707
449.5474	0.0723
449.5473	0.0739
449.8774	0.0755
449.8771	0.0771
449.8769	0.0787
449.8766	0.0803
450.2067	0.0819
450.2065	0.0835
450.2062	0.0851
450.2059	0.0867
450.5361	0.0882
450.5358	0.0898
450.866	0.0914
450.8657	0.093
450.8654	0.0946
450.8652	0.0962
451.1953	0.0977
451.195	0.0994
451.1948	0.101
451.5249	0.1026
451.855	0.1042
451.8548	0.1058
452.1852	0.1058
452.1849	0.1073
452.1846	0.1089
452.1844	0.1105
452.1841	0.1121
452.1839	0.1137
452.1836	0.1153
452.1833	0.1169
452.5135	0.1185
452.5131	0.1201
452.5129	0.1217
452.8431	0.1233
452.8428	0.1249
452.8425	0.1265
452.8423	0.128
453.1724	0.1296
453.1722	0.1312
453.1719	0.1328
453.502	0.1344
453.5018	0.136
453.5015	0.1376
453.5011	0.1392
453.501	0.1408
453.5007	0.1424
453.5004	0.144
453.8306	0.1456
453.8303	0.1472
454.1605	0.1487
454.1602	0.1503
454.1599	0.1519
454.4903	0.1519
454.4901	0.1535
454.8202	0.1551
454.8199	0.1567
454.8197	0.1583
454.8194	0.1599
455.1498	0.1599
455.4799	0.1615
455.4797	0.1631
455.4794	0.1647
455.4791	0.1663
455.4788	0.1678
455.809	0.1694
455.8088	0.171
456.1391	0.171
456.1389	0.1726
456.1386	0.1742
456.1384	0.1758
456.1381	0.1774
456.1378	0.179
456.468	0.1806
456.4677	0.1822
456.7978	0.1838
456.7976	0.1854
456.7973	0.187
456.797	0.1885
456.7968	0.1901
456.7965	0.1917
456.7963	0.1933
456.796	0.1949
456.7957	0.1965
457.1261	0.1965
457.1259	0.1981
457.456	0.1997
457.4557	0.2013
457.7859	0.2029
457.7856	0.2045
457.7852	0.2061
457.7851	0.2076
457.7848	0.2092
457.4544	0.2092
457.4542	0.2107
457.1238	0.2107
457.1235	0.2124
457.4536	0.214
457.784	0.214
457.7838	0.2156
458.1142	0.2156
458.4443	0.2172
458.7747	0.2172
458.7744	0.2187
458.7742	0.2204
458.7739	0.222
459.104	0.2236
459.1038	0.2252
459.1035	0.2268
459.1032	0.2283
459.103	0.2299
459.1027	0.2315
459.1025	0.2331
459.1022	0.2347
459.1019	0.2363
459.1017	0.2379
459.1014	0.2395
459.1011	0.2411
459.1009	0.2427
459.1006	0.2443
459.1004	0.2459
459.1001	0.2475
459.4304	0.2475
459.4302	0.249
459.7604	0.2506
459.7601	0.2522
459.7598	0.2538
460.09	0.2554
460.0897	0.257
460.0894	0.2586
460.0892	0.2602
460.4193	0.2618
460.419	0.2634
460.4188	0.265
460.4184	0.2666
460.4183	0.2682
460.418	0.2697
460.7481	0.2713
460.7479	0.2729
461.078	0.2745
461.0777	0.2761
461.0775	0.2777
461.0772	0.2793
461.0769	0.2809
461.0767	0.2825
460.7463	0.2825
460.746	0.2841
461.0762	0.2857
461.0759	0.2873
461.4062	0.2873
461.406	0.2888
461.7362	0.2904
461.7359	0.292
461.7356	0.2936
461.7354	0.2952
461.7351	0.2968
462.0652	0.2984
462.065	0.3
462.0647	0.3016
461.7341	0.3032
461.7338	0.3048
461.7335	0.3064
461.7332	0.308
461.733	0.3094
461.7327	0.3111
461.4022	0.3111
461.4021	0.3127
461.4018	0.3143
461.4016	0.3159
461.7317	0.3175
461.7314	0.3191
461.7311	0.3207
461.7309	0.3223
461.7306	0.3239
462.0608	0.3255
462.0605	0.3271
462.0602	0.3287
462.06	0.3302
462.0597	0.3317
462.3899	0.3334
462.3896	0.335
462.3893	0.3366
462.7195	0.3382
462.7191	0.3397
463.0493	0.3414
463.0491	0.343
463.0488	0.3446
463.3792	0.3446
463.3789	0.3462
463.3787	0.3477
463.3784	0.3494
463.378	0.3509
463.7085	0.3509
463.7083	0.3525
464.0384	0.3541
464.0382	0.3557
464.3683	0.3573
464.3679	0.3589
464.3678	0.3605
464.3675	0.362
464.3672	0.3637
464.367	0.3653
464.3667	0.3669
464.3664	0.3685
464.3662	0.37
464.6963	0.3716
464.6961	0.3732
465.0262	0.3748
465.0259	0.3764
465.0257	0.378
465.0254	0.3796
465.0251	0.3812
465.0249	0.3828
465.355	0.3844
465.3547	0.386
465.3545	0.3876
465.3542	0.3892
465.354	0.3908
465.3537	0.3923
465.3534	0.3939
465.6836	0.3955
465.6833	0.3971
465.683	0.3987
465.6827	0.4003
466.0129	0.4019
466.0126	0.4035
466.0124	0.4051
466.0121	0.4067
466.0119	0.4083
466.342	0.4099
466.3417	0.4114
466.3415	0.413
466.0111	0.413
466.0108	0.4146
466.0105	0.4162
466.3407	0.4178
466.3404	0.4194
466.6707	0.4194
466.6705	0.421
467.0007	0.4226
467.0004	0.4242
467.3305	0.4258
467.3303	0.4274
467.33	0.429
467.3298	0.4306
467.3295	0.4321
467.3292	0.4337
467.329	0.4353
467.3287	0.4369
467.3284	0.4385
467.6585	0.4401
467.6583	0.4417
467.658	0.4433
467.9882	0.4449
467.9879	0.4465
468.3183	0.4465
468.3181	0.4481
468.3178	0.4497
468.3175	0.4513
468.3173	0.4527
468.6474	0.4544
468.6471	0.456
468.6469	0.4576
468.6465	0.4592
468.6463	0.4607
468.9765	0.4624
468.9762	0.464
468.976	0.4656
468.9757	0.4672
468.9754	0.4687
468.9752	0.4704
469.3053	0.4719
469.305	0.4735
469.3048	0.4751
469.3045	0.4767
469.3042	0.4783
469.6343	0.4799
469.6341	0.4815
469.6338	0.483
469.6336	0.4847
469.6333	0.4863
469.6331	0.4879
469.6328	0.4895
469.6324	0.491
469.9627	0.4926
469.9624	0.4942
469.9621	0.4958
469.9619	0.4974
469.9616	0.499
469.9614	0.5006
469.9611	0.5022
469.9607	0.5038
470.291	0.5053
470.2907	0.507
470.2904	0.5086
470.2902	0.5102
470.2899	0.5118
470.2896	0.5133
470.2894	0.5149
470.2891	0.5165
470.6193	0.5181
470.619	0.5197
470.9494	0.5197
470.9491	0.5213
471.2793	0.5229
471.279	0.5245
471.6091	0.5261
471.6089	0.5276
471.6086	0.5293
471.6082	0.5309
471.608	0.5325
471.6078	0.534
471.9379	0.5356
471.9377	0.5372
471.9374	0.5388
471.9372	0.5404
471.9369	0.542
471.9365	0.5436
471.9364	0.5452
471.9361	0.5468
471.6054	0.5484
471.275	0.5484
471.2748	0.55
471.6049	0.5516
471.6047	0.5532
471.9351	0.5532
471.9348	0.5547
472.2649	0.5563
472.2647	0.5579
472.5948	0.5594
472.9249	0.5611
472.9247	0.5627
472.9243	0.5643
472.9241	0.5659
473.2543	0.5675
473.254	0.5691
473.2537	0.5707
473.2535	0.5723
473.2532	0.5739
473.253	0.5754
473.2527	0.577
473.2524	0.5786
473.5826	0.5802
473.5823	0.5817
473.9127	0.5817
473.9123	0.5834
473.9122	0.585
473.9119	0.5866
473.9116	0.5882
473.9114	0.5897
474.2415	0.5914
474.2413	0.593
474.241	0.5945
474.2407	0.596
474.2405	0.5977
474.2402	0.5993
474.2399	0.6009
473.9095	0.6009
473.9093	0.6025
473.909	0.604
474.2391	0.6057
474.2389	0.6073
474.2386	0.6089
474.2384	0.6105
474.5685	0.612
474.5682	0.6137
474.8986	0.6137
474.8984	0.6152
475.2285	0.6168
475.2282	0.6183
475.5584	0.62
475.5581	0.6216
475.5577	0.6232
475.5575	0.6248
475.5573	0.6263
475.8874	0.628
475.8872	0.6296
475.8869	0.6312
475.8867	0.6328
475.8864	0.6343
475.886	0.6359
475.8859	0.6375
475.8856	0.6391
475.8853	0.6407
476.2155	0.6423
476.2152	0.6439
476.5453	0.6455
476.5451	0.6471
476.5448	0.6487
476.5446	0.6503
476.5443	0.6519
476.544	0.6535
476.2136	0.6535
476.2134	0.6551
476.2131	0.6566
476.5432	0.6582
476.543	0.6598
476.5427	0.6614
476.5425	0.663
476.8726	0.6646
476.8723	0.6662
476.8721	0.6678
477.2025	0.6678
477.2022	0.6694
477.5323	0.671
477.5321	0.6726
477.8622	0.6742
477.8618	0.6757
477.8617	0.6773
477.8614	0.6789
477.8611	0.6804
477.8609	0.6821
477.8606	0.6837
478.1908	0.6853
478.1905	0.6869
478.5206	0.6885
478.5204	0.6901
478.5201	0.6917
478.5198	0.6933
478.5196	0.6949
478.5192	0.6964
478.519	0.698
478.5188	0.6996
478.5185	0.7012
478.5183	0.7027
478.518	0.7044
478.1876	0.7044
478.1873	0.706
478.5175	0.7076
478.5171	0.7092
478.8476	0.7092
478.8473	0.7107
479.1775	0.7124
479.1772	0.714
479.5072	0.7156
479.8375	0.717
479.8372	0.7187
479.8369	0.7203
479.8367	0.7219
479.8364	0.7235
479.8362	0.725
479.8359	0.7267
479.8356	0.7283
479.8354	0.7299
479.8351	0.7315
480.1652	0.733
480.165	0.7347
480.1647	0.7363
480.1645	0.7378
480.1642	0.7393
480.4943	0.741
480.4941	0.7426
480.4938	0.7442
480.4935	0.7458
480.8237	0.7473
480.8234	0.749
480.8231	0.7506
480.8229	0.7522
481.153	0.7538
481.1527	0.7553
481.1525	0.757
481.1522	0.7585
481.152	0.7601
481.1517	0.7617
481.4818	0.7633
481.4816	0.7649
481.8117	0.7665
481.8114	0.7681
481.8112	0.7697
482.1416	0.7697
482.1413	0.7713
482.141	0.7729
482.1408	0.7745
482.1405	0.7761
482.1403	0.7776
482.4707	0.7776
482.8008	0.7792
482.8005	0.7808
483.1309	0.7808
483.1307	0.7824
483.1304	0.784
483.1301	0.7856
483.1299	0.7872
483.46	0.7888
483.4597	0.7904
483.4595	0.792
483.4592	0.7936
483.4588	0.7952
483.4586	0.7968
483.4584	0.7983
483.4582	0.7999
483.4579	0.8014
483.4576	0.8031
483.7877	0.8047
483.7875	0.8063
483.7872	0.8079
483.787	0.8094
484.1171	0.8111
484.1168	0.8127
484.1166	0.8143
484.1163	0.8159
484.4465	0.8175
484.4462	0.819
484.4459	0.8206
484.7761	0.8222
484.7758	0.8237
484.7755	0.8254
484.7753	0.827
485.1054	0.8286
485.1051	0.8302
485.1049	0.8317
485.435	0.8334
485.4348	0.835
485.4344	0.8366
485.4342	0.838
485.7644	0.8397
485.7641	0.8413
485.7638	0.8429
486.094	0.8445
486.0937	0.846
486.0934	0.8477
486.4238	0.8477
486.754	0.8493
486.7537	0.8509
487.0841	0.8509
487.0838	0.8525
487.0836	0.854
487.0833	0.8557
487.0831	0.8573
487.0828	0.8588
487.0825	0.8604
487.0823	0.862
487.082	0.8636
487.0817	0.8652
487.4121	0.8652
487.4119	0.8668
487.742	0.8683
487.7417	0.87
487.7415	0.8716
487.7412	0.8732
488.0713	0.8748
488.0711	0.8763
488.0708	0.878
488.0706	0.8795
488.0703	0.8811
488.4003	0.8827
488.4002	0.8843
488.3999	0.8859
488.3996	0.8875
488.7298	0.8891
488.7295	0.8907
488.7292	0.8923
489.0594	0.8939
489.0591	0.8955
489.0589	0.8971
489.389	0.8986
489.3887	0.9002
489.3885	0.9018
489.7186	0.9034
489.7183	0.905
489.7181	0.9066
490.0482	0.9082
490.0479	0.9098
490.0477	0.9114
490.3778	0.913
490.3775	0.9146
490.3773	0.9162
490.7074	0.9178
490.7072	0.9193
491.0373	0.9209
491.3674	0.9224
491.6976	0.9241
491.6973	0.9257
491.697	0.9273
491.6968	0.9289
492.0269	0.9304
492.0266	0.9321
492.3568	0.9337
492.3565	0.9353
492.6865	0.9369
492.6864	0.9384
493.0165	0.94
493.0163	0.9416
493.016	0.9432
493.3461	0.9447
493.3458	0.9464
493.676	0.948
494.0061	0.9496
494.3363	0.9512
494.336	0.9527
494.3357	0.9544
494.6659	0.956
494.6656	0.9576
494.9957	0.959
495.3259	0.9607
495.3256	0.9623
495.6557	0.9639
495.9859	0.9655
495.9856	0.967
496.3157	0.9687
496.6459	0.9703
496.976	0.9719
496.9757	0.9735
497.3059	0.975
497.636	0.9767
497.9661	0.9782
498.2963	0.9798
498.6263	0.9814
498.9565	0.983
499.2867	0.9846
499.6168	0.9862
499.947	0.9878
500.2771	0.9893
500.6072	0.991
500.9374	0.9926
501.2677	0.9926
501.5981	0.9926
501.9285	0.9926
502.2587	0.9942
502.5891	0.9942
502.9195	0.9942
503.2501	0.9926
503.5805	0.9926
503.9109	0.9926
504.2413	0.9926
504.572	0.991
504.9024	0.991
504.9021	0.9926
505.2325	0.9926
505.2322	0.9941
505.5626	0.9941
505.8933	0.9926
506.2237	0.9926
506.224	0.991
506.5544	0.991
506.885	0.9893
507.2154	0.9893
507.5461	0.9878
507.8765	0.9878
508.2069	0.9878
508.5373	0.9878
508.8677	0.9878
509.1981	0.9878
509.5285	0.9878
509.8588	0.9878
510.1892	0.9878
510.5196	0.9878
510.85	0.9878
511.1804	0.9878
511.5108	0.9878
511.8415	0.9862
512.1722	0.9846
512.5028	0.983
512.8332	0.983
513.1639	0.9814
513.4945	0.9798
513.8252	0.9782
514.1556	0.9782
514.486	0.9782
514.8166	0.9766
515.1473	0.975
515.478	0.9734
515.8086	0.9718
516.1393	0.9702
516.4697	0.9702
516.4699	0.9686
516.4702	0.967
516.8009	0.9655
517.1313	0.9655
517.4617	0.9655
517.7923	0.9639
517.7926	0.9623
518.1232	0.9607
518.4539	0.959
518.7846	0.9575
518.7848	0.9559
519.1155	0.9543
519.1157	0.9527
519.4461	0.9527
519.4464	0.951
519.7771	0.9495
519.7772	0.9479
520.108	0.9463
520.4386	0.9447
520.7692	0.9432
520.7696	0.9416
521.1002	0.94
521.4309	0.9384
521.4311	0.9367
521.7618	0.9352
522.0925	0.9336
522.4231	0.932
522.4234	0.9304
522.7541	0.9287
523.0847	0.9272
523.085	0.9256
523.4156	0.924
523.7463	0.9224
523.7466	0.9207
524.0772	0.9193
524.4079	0.9177
524.7385	0.9161
525.0692	0.9144
525.3999	0.9129
525.7305	0.9113
526.0612	0.9097
526.3918	0.9081
526.7225	0.9064
527.0532	0.9049
527.3838	0.9033
527.7142	0.9033
528.0449	0.9017
528.3753	0.9017
528.3755	0.9001
528.7059	0.9001
529.0363	0.9001
529.367	0.8984
529.6974	0.8984
530.028	0.8969
530.3584	0.8969
530.6891	0.8954
531.0198	0.8938
531.3501	0.8938
531.6808	0.8921
532.0112	0.8921
532.3418	0.8906
532.6723	0.8906
533.0029	0.889
533.3336	0.8874
533.664	0.8874
533.9946	0.8858
534.3253	0.8841
534.656	0.8826
534.9866	0.881
535.3173	0.8794
535.6479	0.8778
535.9786	0.8761
536.3093	0.8746
536.6399	0.873
536.9706	0.8715
537.3012	0.8699
537.6319	0.8683
537.9626	0.8667
538.2932	0.8651
538.2934	0.8635
538.2937	0.8618
538.624	0.8618
538.6244	0.8603
538.6247	0.8587
538.9553	0.8571
539.286	0.8555
539.2862	0.8538
539.6169	0.8523
539.6172	0.8507
539.9478	0.8492
539.9481	0.8476
540.2788	0.846
540.6094	0.8444
540.6097	0.8428
540.9403	0.8412
540.9405	0.8396
541.2713	0.838
541.6019	0.8364
541.6021	0.8348
541.9327	0.8332
541.9331	0.8316
542.2638	0.83
542.264	0.8284
542.5947	0.8269
542.9253	0.8253
542.9256	0.8237
543.2563	0.8221
543.5869	0.8205
543.5872	0.8189
543.9178	0.8173
543.9181	0.8157
544.2488	0.8141
544.5794	0.8125
544.5796	0.8109
544.9104	0.8093
545.241	0.8077
545.2413	0.8061
545.5716	0.8061
545.9022	0.8045
545.9026	0.803
546.2333	0.8014
546.5638	0.7997
546.5642	0.7982
546.8948	0.7966
546.8951	0.795
547.2258	0.7934
547.226	0.7917
547.5564	0.7917
547.5567	0.7902
547.5569	0.7886
547.8876	0.787
547.8879	0.7854
548.2185	0.7838
548.2187	0.7822
548.5495	0.7807
548.5497	0.7791
548.55	0.7774
548.8803	0.7774
548.8806	0.7759
549.2113	0.7743
549.2116	0.7727
549.5422	0.7711
549.5425	0.7694
549.8731	0.7679
549.8734	0.7663
550.2041	0.7647
550.2043	0.7631
550.535	0.7614
550.8656	0.7599
550.8659	0.7584
551.1966	0.7568
551.1968	0.7551
551.5274	0.7536
551.5278	0.752
551.8584	0.7504
551.8587	0.7488
552.1893	0.7471
552.52	0.7456
552.5203	0.744
552.8509	0.7424
552.8512	0.7408
553.1818	0.7391
553.1821	0.7377
553.1824	0.7361
553.513	0.7345
553.5133	0.7328
553.8439	0.7313
553.8441	0.7297
554.1749	0.7281
554.1751	0.7265
554.5058	0.7248
554.5061	0.7233
554.8367	0.7217
554.837	0.7201
555.1676	0.7185
555.1679	0.7168
555.4986	0.7154
555.8292	0.7138
555.8295	0.7122
556.1601	0.7106
556.1604	0.709
556.491	0.7074
556.4913	0.7058
556.822	0.7042
556.8223	0.7026
557.1529	0.701
557.4836	0.6994
557.4838	0.6978
557.8145	0.6962
557.8148	0.6945
558.1454	0.6931
558.1457	0.6915
558.4763	0.6899
558.4766	0.6883
558.4769	0.6867
558.8075	0.6851
558.8077	0.6835
559.1385	0.6819
559.1387	0.6803
559.4694	0.6787
559.4696	0.6771
559.8003	0.6755
559.8006	0.6739
560.1312	0.6723
560.1315	0.6707
560.4621	0.6692
560.4624	0.6676
560.7931	0.666
560.7933	0.6644
561.124	0.6627
561.1243	0.6612
561.1245	0.6596
561.4552	0.658
561.4554	0.6564
561.7861	0.6548
561.7864	0.6532
562.117	0.6516
562.1173	0.65
562.4479	0.6484
562.4482	0.6469
562.7789	0.6453
562.7791	0.6437
562.7793	0.6421
563.1101	0.6404
563.1103	0.6389
563.441	0.6373
563.4412	0.6357
563.7719	0.6341
563.7722	0.6324
563.7724	0.6309
564.1031	0.6293
564.1033	0.6277
564.434	0.6261
564.4343	0.6246
564.7649	0.623
564.7652	0.6214
564.7654	0.6198
565.0961	0.6181
565.0964	0.6166
565.0966	0.615
565.4273	0.6134
565.4276	0.6118
565.7582	0.6101
565.7585	0.6086
565.7587	0.607
566.0894	0.6055
566.0897	0.6038
566.0899	0.6023
566.4205	0.6007
566.4209	0.5991
566.7515	0.5975
566.7518	0.5958
567.0824	0.5943
567.0827	0.5927
567.083	0.5911
567.4136	0.5895
567.4139	0.5878
567.4142	0.5863
567.7448	0.5847
567.745	0.5832
568.0757	0.5816
568.076	0.58
568.4067	0.5784
568.4069	0.5768
568.4072	0.5752
568.7378	0.5735
568.7381	0.572
569.0688	0.5704
569.069	0.5688
569.0693	0.5672
569.4	0.5655
569.4002	0.564
569.7309	0.5624
569.7311	0.5609
570.0618	0.5593
570.0621	0.5577
570.3927	0.5561
570.393	0.5545
570.7236	0.5529
570.7239	0.5513
571.0546	0.5497
571.3852	0.5481
571.3855	0.5465
571.7161	0.5449
571.7164	0.5433
572.0471	0.5417
572.0473	0.5401
572.378	0.5386
572.7086	0.537
573.0393	0.5354
573.0396	0.5338
573.3702	0.5322
573.3705	0.5306
573.7012	0.529
574.0318	0.5274
574.3625	0.5258
574.3627	0.5242
574.6934	0.5226
574.6937	0.521
575.0243	0.5194
575.355	0.5178
575.3552	0.5163
575.6859	0.5147
575.6862	0.5131
576.0168	0.5114
576.0171	0.5099
576.3477	0.5083
576.6784	0.5067
577.0091	0.5051
577.0093	0.5034
577.0096	0.5019
577.0099	0.5003
577.3405	0.4987
577.3408	0.4971
577.6714	0.4955
577.6717	0.494
578.0024	0.4924
578.333	0.4908
578.3333	0.4892
578.6639	0.4876
578.6642	0.486
578.9949	0.4844
578.995	0.4828
578.9954	0.4812
579.3261	0.4796
579.3263	0.478
579.657	0.4764
579.6572	0.4748
579.6575	0.4732
579.9882	0.4717
579.9884	0.4701
580.3191	0.4685
580.3193	0.4668
580.65	0.4653
580.6503	0.4637
580.9809	0.4621
580.9811	0.4605
581.3119	0.4588
581.3121	0.4573
581.3124	0.4557
581.643	0.4541
581.6433	0.4525
581.974	0.451
581.9742	0.4494
582.3049	0.4478
582.3051	0.4462
582.6358	0.4445
582.636	0.443
582.9667	0.4414
582.967	0.4398
583.2977	0.4382
583.2979	0.4365
583.6286	0.435
583.6288	0.4334
583.9595	0.4318
583.9598	0.4302
584.2904	0.4287
584.2907	0.4271
584.6213	0.4255
584.6216	0.4239
584.9523	0.4223
584.9525	0.4207
584.9527	0.4191
585.2835	0.4175
585.2837	0.4159
585.6143	0.4143
585.6146	0.4127
585.9453	0.4111
585.9456	0.4095
586.2762	0.4079
586.2765	0.4064
586.6071	0.4048
586.6074	0.4032
586.9381	0.4016
586.9383	0.4
587.269	0.3984
587.2692	0.3968
587.5998	0.3952
587.6002	0.3936
587.9308	0.392
587.9311	0.3904
588.2618	0.3888
588.262	0.3872
588.5927	0.3856
588.5929	0.3841
588.9236	0.3825
588.9239	0.3809
589.2545	0.3793
589.2548	0.3777
589.5854	0.3761
589.5857	0.3745
589.9163	0.3729
589.9165	0.3713
590.2473	0.3697
590.2476	0.3681
590.5782	0.3665
590.5785	0.3649
590.9091	0.3633
590.9094	0.3618
591.2401	0.3602
591.2403	0.3586
591.571	0.357
591.5712	0.3554
591.9019	0.3538
591.9022	0.3522
592.2328	0.3506
592.2331	0.349
592.5638	0.3474
592.564	0.3458
592.8947	0.3442
592.8949	0.3426
593.2256	0.341
593.2259	0.3395
593.5565	0.3378
593.5568	0.3363
593.8874	0.3347
593.8877	0.3331
594.2184	0.3315
594.2186	0.3299
594.5493	0.3283
594.8799	0.3267
594.8801	0.3251
595.2109	0.3235
595.2111	0.3219
595.5417	0.3203
595.5421	0.3187
595.8727	0.3172
595.873	0.3155
596.2036	0.314
596.5343	0.3124
596.5346	0.3108
596.8652	0.3092
597.1959	0.3075
597.1961	0.306
597.5268	0.3044
597.8575	0.3028
598.1881	0.3012
598.1884	0.2995
598.519	0.298
598.8497	0.2964
599.1804	0.2949
599.511	0.2933
599.8417	0.2917
599.8418	0.2901
600.1726	0.2885
600.5032	0.2869
600.8338	0.2852
600.8342	0.2837
601.1648	0.2821
601.4955	0.2805
601.8262	0.2789
602.1568	0.2772
602.4875	0.2757
602.4878	0.2741
602.8184	0.2726
603.1491	0.271
603.4797	0.2694
603.48	0.2678
603.8107	0.2662
604.1413	0.2646
604.1416	0.263
604.4722	0.2614
604.8029	0.2598
604.8032	0.2582
605.1338	0.2566
605.4645	0.255
605.7951	0.2534
605.7953	0.2518
606.1261	0.2502
606.1263	0.2487
606.457	0.2471
606.7875	0.2455
606.7879	0.2439
607.1186	0.2423
607.4492	0.2407
607.4495	0.2391
607.7801	0.2375
608.1108	0.2359
608.1111	0.2343
608.4417	0.2327
608.7724	0.2311
609.103	0.2295
609.1033	0.2279
609.434	0.2264
609.7646	0.2248
610.0953	0.2232
610.0956	0.2216
610.4262	0.22
610.7569	0.2184
611.0875	0.2168
611.4182	0.2152
611.7489	0.2136
612.0795	0.212
612.0798	0.2104
612.4104	0.2088
612.741	0.2072
613.0718	0.2056
613.4024	0.2041
613.4027	0.2025
613.7332	0.2009
614.064	0.1993
614.3947	0.1977
614.7252	0.1961
615.056	0.1945
615.3866	0.1929
615.7173	0.1913
616.048	0.1897
616.3786	0.1881
616.7093	0.1865
617.0399	0.1849
617.0402	0.1833
617.3709	0.1817
617.7015	0.1802
618.0322	0.1786
618.3628	0.177
618.6935	0.1754
619.0242	0.1738
619.3548	0.1722
619.6852	0.1722
619.6855	0.1706
620.0159	0.1706
620.0161	0.169
620.3465	0.169
620.3468	0.1674
620.6772	0.1674
620.6775	0.1658
621.0078	0.1658
621.0081	0.1642
621.3385	0.1642
621.3388	0.1626
621.6692	0.1626
621.9998	0.161
622.3305	0.1594
622.6611	0.1578
622.9915	0.1578
623.3222	0.1562
623.6529	0.1547
623.9835	0.1531
624.3142	0.1515
624.6448	0.1499
624.6451	0.1482
624.9755	0.1482
624.9758	0.1467
625.3062	0.1467
625.3064	0.1451
625.6368	0.1451
625.9675	0.1435
626.2979	0.1435
626.6284	0.1419
626.9592	0.1403
627.2899	0.1387
627.6202	0.1387
627.9508	0.1371
628.2816	0.1355
628.6122	0.1339
628.9426	0.1339
629.2732	0.1324
629.6038	0.1308
629.9346	0.1292
630.265	0.1292
630.5957	0.1276
630.9263	0.126
631.2567	0.126
631.5874	0.1244
631.918	0.1228
632.2487	0.1212
632.5791	0.1212
632.9098	0.1196
633.2404	0.1179
633.5708	0.1179
633.9015	0.1164
634.2321	0.1148
634.5625	0.1148
634.8932	0.1132
635.2236	0.1132
635.5542	0.1116
635.8849	0.11
636.2153	0.11
636.546	0.1084
636.8763	0.1084
637.207	0.1069
637.5373	0.1069
637.8681	0.1053
638.1985	0.1053
638.5291	0.1037
638.8598	0.1021
639.1902	0.1021
639.5208	0.1005
639.8512	0.1005
640.1819	0.0989
640.5123	0.0989
640.843	0.0973
641.1736	0.0957
641.504	0.0957
641.8347	0.0941
642.1651	0.0941
642.4957	0.0925
642.826	0.0925
643.1568	0.0909
643.4872	0.0909
643.8178	0.0893
644.1482	0.0893
644.4786	0.0893
644.8093	0.0877
645.1397	0.0877
645.4704	0.0861
645.8007	0.0861
646.1314	0.0845
646.4618	0.0845
646.7925	0.0829
647.1229	0.0829
647.4535	0.0813
647.7839	0.0813
648.1146	0.0798
648.445	0.0798
648.7753	0.0798
649.106	0.0782
649.4364	0.0782
649.7671	0.0766
650.0975	0.0766
650.4279	0.0766
650.7585	0.075
651.0889	0.075
651.4196	0.0734
651.75	0.0734
652.0804	0.0734
652.411	0.0718
652.7414	0.0718
653.0721	0.0702
653.4025	0.0702
653.7328	0.0702
654.0633	0.0702
654.394	0.0686
654.7244	0.0686
655.055	0.067
655.3854	0.067
655.7158	0.067
656.0465	0.0654
656.3769	0.0654
656.7073	0.0654
657.0379	0.0638
657.3683	0.0638
657.6987	0.0638
658.0291	0.0638
658.3598	0.0622
658.6902	0.0622
659.0206	0.0622
659.3512	0.0606
659.6816	0.0606
660.012	0.0606
660.3427	0.059
660.6731	0.059
661.0035	0.059
661.3338	0.059
661.6644	0.0574
661.9949	0.0574
661.9952	0.0558
662.3256	0.0558
662.656	0.0558
662.9864	0.0558
663.317	0.0542
663.6474	0.0542
663.9778	0.0542
664.3082	0.0542
664.6385	0.0542
664.9689	0.0542
665.2997	0.0526
665.6301	0.0526
665.6303	0.051
665.9607	0.051
666.2911	0.051
666.6215	0.051
666.9522	0.0495
667.2826	0.0493
667.613	0.0493
667.9434	0.0493
668.274	0.0479
668.6044	0.0479
668.9348	0.0479
669.2652	0.0479
669.5956	0.0479
669.926	0.0479
670.2567	0.0463
670.5871	0.0463
670.9175	0.0463
671.2479	0.0463
671.5783	0.0463
671.9087	0.0463
672.2393	0.0447
672.5697	0.0447
672.9001	0.0447
673.2305	0.0447
673.5609	0.0447
673.8913	0.0447
674.222	0.0431
674.5524	0.0431
674.8828	0.0431
675.2132	0.0431
675.5434	0.0431
675.8739	0.0431
676.2046	0.0415
676.535	0.0415
676.8654	0.0415
677.1958	0.0415
677.5262	0.0415
677.8566	0.0415
678.1872	0.0399
678.5175	0.0399
678.8479	0.0399
679.1784	0.0399
679.5088	0.0399
679.8392	0.0399
680.1696	0.0399
680.5003	0.0383
680.8307	0.0383
681.1611	0.0383
681.4915	0.0383
681.8218	0.0383
682.1522	0.0383
682.4827	0.0383
682.8131	0.0383
683.1437	0.0367
683.4741	0.0367
683.8045	0.0367
684.1349	0.0367
684.4653	0.0367
684.7957	0.0367
685.1261	0.0367
685.4565	0.0367
685.7872	0.0351
686.1176	0.0351
686.448	0.0351
686.7783	0.0351
687.1087	0.0351
687.4391	0.0351
687.7694	0.0351
688.1002	0.0335
688.4306	0.0335
688.761	0.0335
689.0914	0.0335
689.4218	0.0335
689.7522	0.0335
690.0826	0.0335
690.413	0.0335
690.7436	0.0319
691.074	0.0319
691.4043	0.0319
691.7351	0.0303
692.0655	0.0303
692.3959	0.0303
692.7263	0.0303
693.0567	0.0303
693.3873	0.0287
693.7177	0.0287
694.0481	0.0287
694.3785	0.0287
694.7088	0.0287
695.0393	0.0287
695.3697	0.0287
695.7004	0.0271
696.0308	0.0271
696.3612	0.0271
696.6918	0.0255
697.0222	0.0255
697.3526	0.0255
697.683	0.0255
697.6833	0.0239
698.0137	0.0239
698.3441	0.0239
698.6745	0.0239
699.0049	0.0239
699.3353	0.0239
699.6657	0.0239
699.9961	0.0239
700.3265	0.0239
700.6568	0.0239
700.9872	0.0239
701.3176	0.0239
701.6478	0.0255
701.9782	0.0255
702.3088	0.0239
702.6392	0.0239
702.9696	0.0239
703.3003	0.0223
703.6307	0.0223
703.9611	0.0223
704.2915	0.0223
704.6219	0.0223
704.9523	0.0223
705.2827	0.0223
705.6131	0.0223
705.9435	0.0223
706.2739	0.0223
706.6042	0.0223
706.9346	0.0223
707.265	0.0223
707.5954	0.0223
707.9258	0.0223
708.2562	0.0223
708.5866	0.0223
708.917	0.0223
709.2474	0.0223
709.5777	0.0223
709.9082	0.0223
710.2389	0.0207
710.5693	0.0207
710.8997	0.0207
711.2301	0.0207
711.5605	0.0207
711.8909	0.0207
712.2213	0.0207
712.5516	0.0207
712.882	0.0207
713.2124	0.0207
713.5428	0.0207
713.8732	0.0207
714.2036	0.0207
714.534	0.0207
714.8643	0.0207
715.1951	0.0191
715.5255	0.0191
715.8559	0.0191
716.1863	0.0191
716.5167	0.0191
716.8471	0.0191
717.1775	0.0191
717.5079	0.0191
717.8383	0.0191
718.1687	0.0191
718.499	0.0191
718.8295	0.0191
719.1598	0.0191
719.4902	0.0191
719.8206	0.0191
720.151	0.0191
720.4814	0.0191
720.8117	0.0191
721.1421	0.0191
721.4726	0.0191
721.803	0.0191
722.1334	0.019
722.4638	0.019
722.7942	0.019
723.1246	0.019
723.455	0.019
723.7854	0.019
724.1158	0.019
724.4462	0.019
724.7766	0.019
725.107	0.019
725.4374	0.019
725.7678	0.019
726.0982	0.019
726.4285	0.019
726.759	0.019
727.0894	0.019
727.42	0.0174
727.7504	0.0174
728.0808	0.0174
728.4112	0.0174
728.7416	0.0174
729.072	0.0174
729.4024	0.0174
729.7328	0.0174
730.0632	0.0174
730.3936	0.0174
730.724	0.0174
731.0541	0.019
731.3845	0.019
731.7149	0.019
732.0453	0.019
732.3754	0.0206
732.7058	0.0206
733.0362	0.0206
733.3666	0.0206
733.697	0.0206
734.0274	0.0206
734.3578	0.0206
734.6882	0.0206
735.0186	0.0206
735.349	0.0206
735.6794	0.0206
736.0098	0.0206
736.3402	0.0206
736.6705	0.0206
737.001	0.0206
737.3314	0.0206
737.6618	0.0206
737.9922	0.0206
738.3229	0.019
738.6532	0.019
738.9839	0.0174
739.3146	0.0158
739.645	0.0158
