456.9155	0.0184
457.4371	0.0184
457.9586	0.0185
458.4784	0.021
459.0	0.021
459.5215	0.021
460.0432	0.021
460.5648	0.021
461.0844	0.0236
461.6059	0.0236
462.1276	0.0236
462.6472	0.0262
462.6452	0.0287
463.1648	0.0312
463.6864	0.0312
464.206	0.0338
464.7257	0.0363
465.2473	0.0364
465.7669	0.0389
466.2865	0.0414
466.8061	0.044
467.3256	0.0465
467.3237	0.0491
467.3218	0.0516
467.8414	0.0542
467.8394	0.0567
467.8374	0.0592
468.357	0.0618
468.355	0.0643
468.353	0.0669
468.8727	0.0694
469.3923	0.072
469.9119	0.0745
469.9099	0.077
469.9079	0.0796
469.9059	0.0821
470.4275	0.0821
470.9472	0.0847
470.9452	0.0872
471.4647	0.0898
471.4628	0.0923
471.4607	0.0948
471.9804	0.0974
471.9784	0.0999
472.5	0.0999
472.4981	0.1025
472.4961	0.105
472.4941	0.1076
473.0137	0.1101
473.0117	0.1126
473.5312	0.1152
473.5293	0.1177
473.5274	0.1203
474.047	0.1228
474.045	0.1253
474.5646	0.1279
474.5626	0.1304
474.5606	0.133
475.0803	0.1355
475.0783	0.1381
475.0763	0.1406
475.0743	0.1431
475.0723	0.1457
475.0703	0.1482
475.5899	0.1508
475.588	0.1533
475.5859	0.1558
475.584	0.1584
476.1036	0.1609
476.1016	0.1635
476.0996	0.166
476.0976	0.1685
476.0957	0.1711
476.6153	0.1736
476.6133	0.1762
476.6113	0.1787
476.6093	0.1812
476.6073	0.1838
476.6053	0.1863
477.125	0.1889
477.123	0.1914
477.121	0.1939
477.119	0.1965
477.117	0.199
477.6366	0.2016
477.6347	0.2041
477.6327	0.2066
477.6307	0.2092
477.6287	0.2117
477.6267	0.2142
477.6247	0.2168
477.6227	0.2193
478.1424	0.2219
478.1404	0.2244
478.1384	0.2269
478.1364	0.2295
478.656	0.232
478.654	0.2346
478.652	0.2371
478.6501	0.2396
478.6481	0.2422
478.6461	0.2447
478.6441	0.2473
478.6421	0.2498
478.6401	0.2523
478.6381	0.2549
478.6362	0.2574
479.1558	0.26
479.1538	0.2625
479.1518	0.265
479.1498	0.2676
479.1478	0.2701
479.1458	0.2726
479.1439	0.2752
479.1419	0.2777
479.1399	0.2803
479.1379	0.2828
479.1359	0.2852
479.1339	0.2879
479.1319	0.2904
479.6516	0.293
479.6496	0.2955
479.6476	0.298
479.6456	0.3006
479.6436	0.3031
479.6416	0.3056
479.6396	0.3082
480.1593	0.3107
480.1573	0.3133
480.1553	0.3158
480.1533	0.3183
480.6729	0.3209
480.6709	0.3234
480.6689	0.326
480.667	0.3285
480.665	0.331
480.663	0.3336
480.661	0.3361
480.659	0.3387
480.657	0.3412
480.655	0.3437
480.6531	0.3463
480.6511	0.3488
480.6491	0.3514
480.6471	0.3538
480.6451	0.3564
481.1647	0.359
481.1627	0.3615
481.1608	0.3641
481.1588	0.3666
481.1568	0.3691
481.1548	0.3717
481.1528	0.3742
481.1508	0.3767
481.1488	0.3793
481.1469	0.3818
481.6665	0.3844
481.6644	0.3869
481.6625	0.3894
481.6604	0.392
481.6585	0.3945
481.6566	0.3971
481.6545	0.3996
481.6526	0.4021
481.6505	0.4047
482.1702	0.4072
482.1682	0.4098
482.1662	0.4123
482.1643	0.4148
482.1623	0.4174
482.1602	0.4199
482.6799	0.4224
482.6779	0.425
482.6759	0.4275
482.6739	0.4301
482.672	0.4325
482.67	0.4351
482.668	0.4377
482.666	0.4402
482.664	0.4428
482.662	0.4453
483.1816	0.4478
483.1797	0.4504
483.1777	0.4529
483.1757	0.4555
483.1737	0.458
483.1717	0.4605
483.1697	0.4631
483.1677	0.4656
483.1658	0.4682
483.6854	0.4707
483.6834	0.4732
483.6814	0.4758
483.6794	0.4783
483.6774	0.4808
483.6754	0.4834
483.6735	0.4859
483.6715	0.4885
483.6695	0.491
483.6675	0.4935
483.6655	0.4961
484.1851	0.4986
484.1831	0.5011
484.1812	0.5037
484.1792	0.5062
484.1772	0.5088
484.1752	0.5112
484.1732	0.5139
484.1712	0.5164
484.1692	0.5189
484.1673	0.5215
484.1653	0.524
484.1633	0.5265
484.1613	0.5291
484.1593	0.5316
484.6789	0.5342
484.6768	0.5367
484.675	0.5392
484.673	0.5417
484.671	0.5443
484.669	0.5469
484.667	0.5493
484.665	0.5518
484.663	0.5545
484.6611	0.557
484.6591	0.5594
484.6571	0.5621
484.6551	0.5646
484.6531	0.5672
484.6511	0.5697
484.6491	0.5722
485.1688	0.5748
485.1668	0.5773
485.1648	0.5798
485.1628	0.5824
485.1608	0.5849
485.1588	0.5875
485.1568	0.5899
485.1549	0.5926
485.6745	0.5951
485.6724	0.5976
485.6705	0.6002
485.6684	0.6027
485.6665	0.6053
485.6644	0.6078
485.6625	0.6103
485.6606	0.6129
485.6585	0.6154
485.6566	0.6179
485.6545	0.6205
485.6526	0.623
485.6505	0.6256
485.6487	0.628
485.6467	0.6306
486.1663	0.6332
486.1643	0.6357
486.1623	0.6383
486.1602	0.6408
486.1583	0.6433
486.1564	0.6459
486.1544	0.6484
486.1524	0.6509
486.1504	0.6535
486.1484	0.656
486.668	0.6585
486.666	0.6611
486.6641	0.6636
486.6621	0.6662
486.6601	0.6686
486.6581	0.6713
486.6561	0.6738
486.6541	0.6763
486.6521	0.6789
486.6502	0.6814
486.6482	0.6839
486.6461	0.6865
486.6442	0.689
486.6421	0.6916
487.1618	0.6941
487.1598	0.6966
487.1579	0.6992
487.1559	0.7017
487.1539	0.7043
487.1519	0.7067
487.1499	0.7093
487.1479	0.7119
487.1459	0.7144
487.144	0.717
487.6656	0.717
487.6636	0.7195
487.6616	0.722
487.6596	0.7246
487.6576	0.7271
487.6556	0.7297
487.6537	0.7322
487.6517	0.7347
487.6497	0.7372
487.6477	0.7398
487.6457	0.7423
488.1653	0.7449
488.1633	0.7473
488.1614	0.75
488.1594	0.7525
488.1574	0.755
488.1554	0.7576
488.1534	0.7601
488.1514	0.7627
488.1494	0.7652
488.1475	0.7677
488.1455	0.7703
488.6651	0.7728
488.6631	0.7753
488.6611	0.7779
488.6591	0.7804
488.6571	0.783
488.6552	0.7854
488.6532	0.788
488.6512	0.7906
488.6492	0.7931
488.6472	0.7957
489.1668	0.7982
489.1648	0.8007
489.1629	0.8033
489.1609	0.8058
489.1589	0.8084
489.1569	0.8109
489.1549	0.8134
489.1529	0.8159
489.6724	0.8185
489.6705	0.8211
489.6686	0.8235
489.6665	0.826
489.6646	0.8287
490.1862	0.8287
490.1842	0.8312
490.1822	0.8338
490.1802	0.8363
490.1783	0.8388
490.1763	0.8414
490.1743	0.8439
490.1723	0.8464
490.1703	0.849
490.1683	0.8515
490.1663	0.854
490.686	0.8566
490.684	0.8591
490.682	0.8617
490.68	0.8641
490.678	0.8668
490.676	0.8693
490.674	0.8718
491.1937	0.8744
491.1917	0.8769
491.1897	0.8795
491.1877	0.882
491.1857	0.8845
491.1837	0.8871
491.1817	0.8896
491.1798	0.8921
491.1778	0.8947
491.1758	0.8972
491.1738	0.8998
491.1718	0.9022
491.6914	0.9049
491.6894	0.9074
491.6875	0.9099
492.2071	0.9125
492.2051	0.915
492.2031	0.9176
492.2011	0.9201
492.1991	0.9226
492.7207	0.9226
492.7187	0.9252
492.7168	0.9277
492.7147	0.9303
492.7128	0.9327
492.7107	0.9353
492.7088	0.9379
492.7067	0.9404
492.7048	0.9428
492.7029	0.9455
492.7008	0.948
492.6989	0.9506
492.6968	0.9531
493.2165	0.9556
493.2145	0.9582
493.2126	0.9607
493.2106	0.9633
493.7302	0.9658
493.7282	0.9683
493.7262	0.9708
493.7242	0.9734
493.7222	0.976
493.7203	0.9785
493.7183	0.9809
493.7163	0.9836
493.7143	0.9861
494.2339	0.9887
494.2319	0.9912
494.7534	0.9912
494.7515	0.9937
495.2711	0.9963
495.2692	0.9988
495.2671	1.0014
495.7888	1.0014
496.3084	1.0039
496.8279	1.0065
497.3476	1.009
497.8692	1.009
497.8673	1.0116
498.3889	1.0116
498.3869	1.0141
498.3889	1.0116
498.3908	1.009
498.3928	1.0065
498.9144	1.0065
499.436	1.0065
499.9596	1.004
500.4812	1.004
499.9596	1.004
499.44	1.0014
499.9616	1.0014
499.9636	0.9989
499.9656	0.9964
500.4892	0.9938
500.4912	0.9912
500.4931	0.9888
501.0167	0.9862
501.0187	0.9837
501.0207	0.9811
501.0227	0.9786
501.0247	0.9761
501.0267	0.9736
501.0286	0.971
501.0306	0.9685
501.0326	0.9659
501.5562	0.9634
501.5582	0.9609
502.0798	0.9609
502.0818	0.9583
502.6054	0.9558
502.6073	0.9533
502.6093	0.9506
502.6113	0.9482
502.6133	0.9457
502.6153	0.9431
502.6173	0.9405
502.6193	0.938
503.1429	0.9355
503.1448	0.933
503.1468	0.9304
503.1488	0.9279
503.6724	0.9254
503.6743	0.9228
503.6764	0.9203
503.6784	0.9178
503.6803	0.9152
504.2039	0.9127
504.2059	0.9102
504.2079	0.9076
504.2099	0.9051
504.7335	0.9026
504.7355	0.9
504.7374	0.8975
505.261	0.8949
505.263	0.8923
505.265	0.8899
505.267	0.8873
505.269	0.8848
505.271	0.8822
505.2729	0.8797
505.2749	0.8772
505.2769	0.8746
505.2789	0.8721
505.2809	0.8696
505.2829	0.867
505.8065	0.8645
505.8085	0.862
505.8104	0.8594
505.8124	0.8569
505.8144	0.8542
506.338	0.8518
506.34	0.8493
506.342	0.8467
506.3439	0.8441
506.3458	0.8417
506.3479	0.8391
506.3498	0.8366
506.8735	0.834
506.8755	0.8315
506.8775	0.829
506.8795	0.8264
506.8814	0.8239
506.8834	0.8214
506.8854	0.8188
507.409	0.8163
507.411	0.8138
507.9346	0.8112
507.9365	0.8087
507.9385	0.8062
507.9405	0.8035
507.9425	0.8011
507.9445	0.7985
507.9465	0.796
507.9485	0.7934
507.9505	0.7909
507.9524	0.7884
507.9544	0.7859
508.478	0.7833
508.48	0.7808
508.482	0.7783
508.484	0.7757
509.0076	0.7732
509.0096	0.7706
509.0115	0.7681
509.0135	0.7656
509.5371	0.763
509.5391	0.7605
510.0627	0.758
510.0647	0.7553
510.0667	0.7529
510.0686	0.7504
510.0706	0.7478
510.0726	0.7452
510.0746	0.7427
510.0766	0.7402
510.0786	0.7377
510.0806	0.7351
510.604	0.7326
511.1277	0.7301
511.1297	0.7275
511.6533	0.725
512.1769	0.7225
512.1789	0.7199
512.7025	0.7174
512.7045	0.7149
512.7064	0.7123
512.7084	0.7098
512.7104	0.7073
512.7124	0.7046
513.236	0.7022
513.7596	0.6997
513.7616	0.6971
514.2851	0.6945
514.2871	0.6921
514.2891	0.6895
514.8127	0.687
514.8147	0.6844
515.3383	0.6819
515.3403	0.6794
515.8639	0.6768
515.8658	0.6743
516.3874	0.6743
516.911	0.6718
517.4325	0.6718
517.9562	0.6693
518.4798	0.6667
518.4818	0.6642
519.0054	0.6617
519.529	0.6592
520.0506	0.6592
520.5742	0.6566
521.0958	0.6566
521.6174	0.6566
522.141	0.6541
522.6644	0.6516
523.1881	0.6491
523.7117	0.6465
524.2353	0.644
524.7569	0.644
524.7589	0.6415
525.2825	0.639
525.2845	0.6364
525.8081	0.6339
526.3316	0.6314
526.3336	0.6288
526.8552	0.6288
526.8572	0.6263
526.8592	0.6238
527.3828	0.6212
527.3848	0.6187
527.3868	0.6162
527.9102	0.6136
528.4339	0.6111
528.4359	0.6086
528.9575	0.6086
528.9595	0.6059
529.483	0.6035
529.4851	0.601
529.487	0.5984
530.0107	0.5958
530.0126	0.5934
530.0146	0.5908
530.0166	0.5883
530.0186	0.5857
530.5402	0.5857
531.0638	0.5832
531.5874	0.5807
531.5894	0.5782
531.5913	0.5756
532.1149	0.5731
532.1169	0.5706
532.6404	0.568
533.1641	0.5655
533.1661	0.563
533.1681	0.5604
533.1701	0.5579
533.172	0.5554
533.6956	0.5528
534.2192	0.5503
534.2212	0.5478
534.7448	0.5452
534.7468	0.5427
534.7488	0.5402
535.2724	0.5375
535.2743	0.5351
535.2763	0.5325
535.7999	0.53
535.8018	0.5274
535.8039	0.5249
535.8058	0.5224
536.3295	0.5199
536.3314	0.5173
536.3334	0.5148
536.3354	0.5123
536.859	0.5097
536.861	0.5072
537.3846	0.5047
537.3866	0.5021
537.9101	0.4996
537.9121	0.4971
538.4357	0.4945
538.4377	0.492
538.4397	0.4895
538.9633	0.4868
538.9653	0.4844
539.4889	0.4819
539.4908	0.4793
539.4928	0.4768
540.0164	0.4743
540.0184	0.4717
540.0204	0.4692
540.0224	0.4666
540.546	0.4641
540.5479	0.4616
540.5499	0.459
541.0735	0.4565
541.0755	0.454
541.0775	0.4514
541.0795	0.4489
541.0815	0.4464
541.6051	0.4438
541.607	0.4413
541.609	0.4388
541.611	0.4362
542.1346	0.4337
542.1366	0.4311
542.1386	0.4285
542.1406	0.4261
542.6641	0.4235
542.6661	0.421
542.6681	0.4184
542.6701	0.4159
542.6721	0.4134
543.1957	0.4109
543.1977	0.4083
543.7212	0.4058
543.7231	0.4033
543.7252	0.4007
543.7271	0.3982
544.2508	0.3957
544.2528	0.3931
544.2548	0.3906
544.2568	0.388
544.7803	0.3855
544.7823	0.383
545.3059	0.3804
545.3079	0.3779
545.3099	0.3754
545.3119	0.3728
545.8355	0.3703
545.8374	0.3678
545.8394	0.3652
546.363	0.3627
546.8866	0.3602
546.8885	0.3576
546.8906	0.3551
547.4142	0.3526
547.4161	0.35
547.9397	0.3475
547.9417	0.345
547.9437	0.3424
548.4673	0.3399
548.4693	0.3374
548.4713	0.3348
548.9949	0.3323
548.9968	0.3296
548.9988	0.3272
549.0008	0.3247
549.0028	0.3221
549.5264	0.3195
549.5284	0.3171
549.5304	0.3145
550.0539	0.312
550.0559	0.3094
550.0579	0.3069
550.0599	0.3044
550.5835	0.3019
550.5855	0.2993
551.1071	0.2993
551.1091	0.2968
551.6327	0.2943
552.1562	0.2917
552.1582	0.2892
552.1602	0.2867
552.6838	0.2841
553.2074	0.2816
553.2094	0.2791
553.2114	0.2765
553.2133	0.274
553.7368	0.2715
554.2585	0.2715
554.2605	0.2689
554.7821	0.2689
555.3057	0.2664
555.8273	0.2664
556.3509	0.2639
556.8745	0.2614
557.3981	0.2588
557.9217	0.2563
558.4453	0.2538
558.9687	0.2513
559.4904	0.2513
560.012	0.2513
560.5335	0.2513
561.0553	0.2513
561.5788	0.2488
562.1024	0.2462
562.626	0.2437
563.1496	0.2412
563.6732	0.2386
564.1948	0.2387
564.7184	0.2361
565.242	0.2336
565.7656	0.2311
566.2891	0.2285
566.2911	0.226
566.8147	0.2235
566.8167	0.2209
567.3403	0.2184
567.8618	0.2184
568.3855	0.2159
568.3875	0.2134
568.9111	0.2107
568.913	0.2083
569.4365	0.2058
569.9602	0.2032
569.9622	0.2006
569.9642	0.1982
570.4878	0.1956
571.0094	0.1956
571.0114	0.1931
571.533	0.1931
572.0566	0.1905
572.58	0.188
573.1017	0.1881
573.6233	0.1881
574.1469	0.1855
574.6705	0.183
575.1941	0.1804
575.7177	0.1779
576.2413	0.1754
576.7649	0.1729
577.2885	0.1703
577.8121	0.1678
578.3356	0.1653
578.8572	0.1653
578.8592	0.1628
579.3808	0.1628
579.9043	0.1602
580.428	0.1577
580.9496	0.1577
581.4732	0.1552
581.9968	0.1527
582.5204	0.1502
583.042	0.1502
583.044	0.1476
583.5655	0.1476
584.0891	0.1451
584.6108	0.1451
585.1343	0.1426
585.6559	0.1426
586.1775	0.1426
586.6991	0.1426
587.2227	0.1401
587.7443	0.1401
588.2659	0.1401
588.7894	0.1376
589.3111	0.1376
589.8327	0.1376
590.3563	0.1351
590.8779	0.1351
591.3995	0.1351
591.9211	0.1351
592.4447	0.1326
592.9663	0.1326
593.4899	0.13
594.0115	0.1301
594.5331	0.1301
595.0567	0.1275
595.5783	0.1275
596.0999	0.1276
596.6235	0.125
597.1451	0.125
597.6667	0.125
597.6686	0.1225
598.1923	0.12
598.7159	0.1175
599.2375	0.1175
599.761	0.1149
600.2846	0.1124
600.8062	0.1124
601.3298	0.1099
601.8534	0.1074
602.375	0.1074
602.8986	0.1048
603.4222	0.1023
603.9458	0.0998
604.4694	0.0973
604.991	0.0973
605.5146	0.0947
605.5165	0.0922
605.5185	0.0897
606.0421	0.0871
606.5657	0.0846
607.0893	0.0821
607.6129	0.0795
608.1365	0.077
608.6581	0.077
609.1817	0.0745
609.7052	0.072
610.2288	0.0694
610.7524	0.0669
611.276	0.0644
611.7995	0.0619
612.3212	0.0619
612.8448	0.0593
613.3664	0.0593
613.89	0.0568
614.4136	0.0543
614.9352	0.0543
615.4567	0.0543
615.9784	0.0543
616.502	0.0518
617.0236	0.0518
617.5452	0.0518
618.0668	0.0518
618.5884	0.0518
619.11	0.0518
619.6316	0.0518
620.1532	0.0519
620.6768	0.0493
621.1984	0.0493
621.72	0.0493
622.2416	0.0493
622.7631	0.0493
623.2868	0.0468
623.8084	0.0468
624.33	0.0469
624.8535	0.0443
625.3751	0.0443
625.8968	0.0443
626.4184	0.0444
626.9419	0.0418
627.4635	0.0418
627.9851	0.0418
628.5067	0.0419
629.0303	0.0393
629.5518	0.0393
630.0735	0.0393
630.5971	0.0368
631.1187	0.0368
631.6402	0.0368
632.1639	0.0343
632.6855	0.0343
633.2071	0.0343
633.7287	0.0343
634.2523	0.0318
634.7739	0.0318
635.2955	0.0318
635.8171	0.0318
636.3387	0.0318
636.8603	0.0319
637.3819	0.0319
637.9035	0.0319
638.4251	0.0319
638.9466	0.0319
639.4683	0.0319
639.9899	0.0319
640.5114	0.0319
641.0331	0.0319
641.5547	0.0319
642.0763	0.0319
642.5979	0.032
643.1196	0.032
643.6431	0.0294
644.1667	0.0269
644.6883	0.0269
645.2119	0.0244
645.7335	0.0244
646.257	0.0219
646.7787	0.0219
647.3023	0.0193
647.8239	0.0194
648.3455	0.0194
648.8671	0.0194
649.3907	0.0168
649.9123	0.0169
650.4359	0.0143
