#wavelength	Vogtia glabra
#CALIB2.PRN	FILE363.PRN
1	1
1	1
701	701
330.186	158.128
330.691	157.63
331.196	156.981
331.7	156.166
332.205	155.165
332.71	153.966
333.215	152.568
333.72	150.969
334.224	149.187
334.729	147.228
335.234	145.112
335.739	142.855
336.243	140.486
336.748	138.042
337.253	135.541
337.758	133.05
338.262	130.616
338.767	128.27
339.272	126.036
339.777	123.919
340.282	121.93
340.786	120.081
341.291	118.397
341.796	116.892
342.301	115.586
342.805	114.488
343.31	113.615
343.815	112.954
344.32	112.511
344.824	112.302
345.329	112.35
345.834	112.653
346.339	113.216
346.843	114.016
347.348	115.051
347.853	116.3
348.358	117.765
348.863	119.454
349.367	121.386
349.872	123.544
350.377	125.899
350.882	128.389
351.386	130.95
351.891	133.529
352.396	136.091
352.901	138.591
353.405	140.992
353.91	143.248
354.415	145.336
354.92	147.226
355.425	148.908
355.929	150.368
356.434	151.634
356.939	152.71
357.444	153.608
357.948	154.324
358.453	154.865
358.958	155.241
359.463	155.468
359.967	155.55
360.472	155.534
360.977	155.459
361.482	155.348
361.986	155.209
362.491	155.042
362.996	154.818
363.501	154.534
364.006	154.195
364.51	153.806
365.015	153.368
365.52	152.894
366.025	152.404
366.529	151.937
367.034	151.508
367.539	151.14
368.044	150.867
368.548	150.738
369.053	150.766
369.558	150.983
370.063	151.392
370.567	152.002
371.072	152.804
371.577	153.794
372.082	154.98
372.587	156.382
373.091	157.989
373.596	159.782
374.101	161.72
374.606	163.751
375.11	165.813
375.615	167.89
376.12	169.949
376.625	171.968
377.129	173.939
377.634	175.858
378.139	177.727
378.644	179.556
379.149	181.345
379.653	183.128
380.158	184.961
380.663	186.911
381.168	189.018
381.672	191.329
382.177	193.88
382.682	196.722
383.187	199.907
383.691	203.523
384.196	207.654
384.701	212.374
385.206	217.731
385.71	223.765
386.215	230.519
386.72	238.032
387.225	246.344
387.73	255.52
388.234	265.572
388.739	276.546
389.244	288.463
389.749	301.332
390.253	315.138
390.758	329.878
391.263	345.526
391.768	362.062
392.272	379.482
392.777	397.784
393.282	416.929
393.787	436.886
394.291	457.654
394.796	479.252
395.301	501.717
395.806	525.101
396.311	549.424
396.815	574.719
397.32	601.008
397.825	628.333
398.33	656.777
398.834	686.373
399.339	717.144
399.844	749.128
400.349	782.347
400.853	816.854
401.358	852.635
401.863	889.702
402.368	928.043
402.873	967.674
403.377	1008.58
403.882	1050.78
404.387	1094.33
404.892	1139.22
405.396	1185.48
405.901	1233.12
406.406	1282.23
406.911	1332.87
407.415	1385.12
407.92	1438.98
408.425	1494.46
408.93	1551.52
409.434	1610.1
409.939	1670.09
410.444	1731.36
410.949	1793.69
411.454	1856.9
411.958	1920.9
412.463	1985.54
412.968	2050.64
413.473	2116.02
413.977	2181.55
414.482	2247.06
414.987	2312.46
415.492	2377.64
415.996	2442.54
416.501	2507.07
417.006	2571.21
417.511	2634.97
418.015	2698.33
418.52	2761.32
419.025	2823.97
419.53	2886.21
420.035	2948.03
420.539	3009.37
421.044	3070.13
421.549	3130.22
422.054	3189.51
422.558	3248
423.063	3305.71
423.568	3362.77
424.073	3419.31
424.577	3475.33
425.082	3530.87
425.587	3586
426.092	3640.86
426.597	3695.51
427.101	3750.09
427.606	3804.65
428.111	3859.27
428.616	3913.89
429.12	3968.46
429.625	4022.73
430.13	4076.41
430.635	4129.26
431.139	4180.95
431.644	4231.14
432.149	4279.54
432.654	4325.83
433.158	4369.63
433.663	4410.62
434.168	4448.61
434.673	4483.56
435.178	4515.42
435.682	4544.16
436.187	4569.77
436.692	4592.29
437.197	4611.9
437.701	4628.88
438.206	4643.55
438.711	4656.24
439.216	4667.25
439.72	4676.78
440.225	4684.99
440.73	4691.95
441.235	4697.68
441.74	4702.16
442.244	4705.49
442.749	4707.76
443.254	4709.02
443.759	4709.35
444.263	4708.86
444.768	4707.57
445.273	4705.46
445.778	4702.69
446.282	4699.45
446.787	4695.93
447.292	4692.28
447.797	4688.69
448.301	4685.34
448.806	4682.4
449.311	4680.06
449.816	4678.39
450.321	4677.39
450.825	4676.85
451.33	4676.46
451.835	4675.8
452.34	4674.53
452.844	4672.29
453.349	4668.66
453.854	4663.27
454.359	4655.84
454.863	4646.07
455.368	4633.78
455.873	4618.85
456.378	4601.2
456.882	4580.79
457.387	4557.7
457.892	4532.26
458.397	4504.85
458.902	4475.79
459.406	4445.54
459.911	4414.56
460.416	4383.22
460.921	4351.82
461.425	4320.62
461.93	4289.73
462.435	4259.24
462.94	4229.12
463.444	4199.3
463.949	4169.81
464.454	4140.65
464.959	4111.73
465.464	4082.85
465.968	4053.89
466.473	4024.8
466.978	3995.45
467.483	3965.72
467.987	3935.42
468.492	3904.46
468.997	3872.77
469.502	3840.42
470.006	3807.51
470.511	3774.13
471.016	3740.29
471.521	3706.11
472.025	3671.63
472.53	3636.84
473.035	3601.77
473.54	3566.5
474.045	3531.1
474.549	3495.71
475.054	3460.38
475.559	3425.25
476.064	3390.55
476.568	3356.37
477.073	3322.77
477.578	3289.84
478.083	3257.64
478.587	3226.27
479.092	3195.63
479.597	3165.64
480.102	3136.27
480.606	3107.53
481.111	3079.38
481.616	3051.78
482.121	3024.72
482.626	2998.16
483.13	2971.96
483.635	2946.1
484.14	2920.52
484.645	2895.19
485.149	2870.1
485.654	2845.26
486.159	2820.63
486.664	2796.19
487.168	2771.91
487.673	2747.84
488.178	2723.97
488.683	2700.23
489.188	2676.56
489.692	2652.93
490.197	2629.23
490.702	2605.39
491.207	2581.25
491.711	2556.76
492.216	2531.89
492.721	2506.62
493.226	2480.94
493.73	2454.91
494.235	2428.59
494.74	2402.07
495.245	2375.39
495.749	2348.67
496.254	2322.06
496.759	2295.67
497.264	2269.54
497.769	2243.71
498.273	2218.25
498.778	2193.24
499.283	2168.8
499.788	2144.97
500.292	2121.76
500.797	2099.11
501.302	2076.9
501.807	2055.02
502.311	2033.36
502.816	2011.81
503.321	1990.25
503.826	1968.64
504.33	1947.01
504.835	1925.36
505.34	1903.7
505.845	1882.09
506.35	1860.55
506.854	1839.11
507.359	1817.82
507.864	1796.72
508.369	1775.83
508.873	1755.14
509.378	1734.72
509.883	1714.67
510.388	1695.13
510.892	1676.21
511.397	1657.98
511.902	1640.37
512.407	1623.28
512.911	1606.57
513.416	1590.12
513.921	1573.94
514.426	1557.96
514.931	1542.12
515.435	1526.36
515.94	1510.7
516.445	1495.1
516.95	1479.5
517.454	1463.85
517.959	1448.12
518.464	1432.24
518.969	1416.16
519.473	1399.82
519.978	1383.18
520.483	1366.28
520.988	1349.22
521.493	1332.17
521.997	1315.24
522.502	1298.53
523.007	1282.09
523.512	1265.96
524.016	1250.13
524.521	1234.63
525.026	1219.6
525.531	1205.12
526.035	1191.27
526.54	1178.01
527.045	1165.35
527.55	1153.28
528.054	1141.8
528.559	1130.87
529.064	1120.43
529.569	1110.44
530.074	1100.8
530.578	1091.35
531.083	1082.02
531.588	1072.69
532.093	1063.32
532.597	1053.89
533.102	1044.42
533.607	1034.83
534.112	1025.06
534.616	1015.04
535.121	1004.71
535.626	994.061
536.131	983.077
536.636	971.771
537.14	960.154
537.645	948.183
538.15	935.857
538.655	923.202
539.159	910.308
539.664	897.25
540.169	884.117
540.674	871.023
541.178	858.104
541.683	845.455
542.188	833.153
542.693	821.277
543.197	809.903
543.702	799.07
544.207	788.84
544.712	779.224
545.217	770.214
545.721	761.712
546.226	753.631
546.731	745.828
547.236	738.185
547.74	730.596
548.245	722.929
548.75	715.044
549.255	706.84
549.759	698.234
550.264	689.242
550.769	679.885
551.274	670.208
551.778	660.273
552.283	650.218
552.788	640.218
553.293	630.425
553.798	620.958
554.302	611.915
554.807	603.346
555.312	595.281
555.817	587.767
556.321	580.848
556.826	574.516
557.331	568.747
557.836	563.453
558.34	558.569
558.845	553.996
559.35	549.667
559.855	545.504
560.36	541.416
560.864	537.345
561.369	533.285
561.874	529.237
562.379	525.261
562.883	521.387
563.388	517.651
563.893	514.119
564.398	510.872
564.902	507.954
565.407	505.35
565.912	503
566.417	500.841
566.921	498.783
567.426	496.764
567.931	494.712
568.436	492.573
568.941	490.245
569.445	487.635
569.95	484.613
570.455	481.097
570.96	476.969
571.464	472.134
571.969	466.534
572.474	460.167
572.979	453.1
573.483	445.452
573.988	437.324
574.493	428.87
574.998	420.201
575.502	411.459
576.007	402.816
576.512	394.442
577.017	386.48
577.522	379.044
578.026	372.245
578.531	366.196
579.036	360.961
579.541	356.564
580.045	352.994
580.55	350.256
581.055	348.255
581.56	346.882
582.065	345.968
582.569	345.36
583.074	344.866
583.579	344.348
584.084	343.713
584.588	342.884
585.093	341.814
585.598	340.458
586.103	338.743
586.607	336.642
587.112	334.125
587.617	331.227
588.122	328.017
588.626	324.583
589.131	320.993
589.636	317.329
590.141	313.668
590.645	310.076
591.15	306.58
591.655	303.208
592.16	300.016
592.665	297.062
593.169	294.313
593.674	291.757
594.179	289.355
594.684	287.122
595.188	285.06
595.693	283.181
596.198	281.481
596.703	279.959
597.207	278.612
597.712	277.431
598.217	276.372
598.722	275.413
599.227	274.535
599.731	273.736
600.236	273.002
600.741	272.31
601.246	271.596
601.75	270.81
602.255	269.877
602.76	268.735
603.265	267.325
603.769	265.635
604.274	263.64
604.779	261.329
605.284	258.672
605.789	255.714
606.293	252.483
606.798	249.056
607.303	245.469
607.808	241.77
608.312	238.029
608.817	234.332
609.322	230.743
609.827	227.344
610.331	224.158
610.836	221.229
611.341	218.6
611.846	216.297
612.35	214.331
612.855	212.701
613.36	211.369
613.865	210.291
614.369	209.411
614.874	208.699
615.379	208.11
615.884	207.626
616.389	207.21
616.893	206.899
617.398	206.691
617.903	206.606
618.408	206.615
618.912	206.708
619.417	206.842
619.922	207.02
620.427	207.248
620.931	207.507
621.436	207.776
621.941	208.055
622.446	208.289
622.951	208.465
623.455	208.567
623.96	208.583
624.465	208.495
624.97	208.291
625.474	207.93
625.979	207.384
626.484	206.64
626.989	205.699
627.493	204.565
627.998	203.287
628.503	201.915
629.008	200.512
629.513	199.052
630.017	197.548
630.522	195.98
631.027	194.361
631.532	192.704
632.036	191.07
632.541	189.481
633.046	187.939
633.551	186.458
634.055	185.057
634.56	183.736
635.065	182.523
635.57	181.439
636.074	180.538
636.579	179.827
637.084	179.326
637.589	179.029
638.093	178.926
638.598	178.982
639.103	179.195
639.608	179.557
640.113	180.071
640.617	180.709
641.122	181.435
641.627	182.177
642.132	182.925
642.636	183.654
643.141	184.375
643.646	185.091
644.151	185.789
644.655	186.407
645.16	186.899
645.665	187.256
646.17	187.489
646.675	187.601
647.179	187.617
647.684	187.577
648.189	187.522
648.694	187.44
649.198	187.35
649.703	187.219
650.208	187.008
650.713	186.683
651.217	186.284
651.722	185.825
652.227	185.334
652.732	184.824
653.236	184.298
653.741	183.749
654.246	183.212
654.751	182.698
655.256	182.213
655.76	181.724
656.265	181.202
656.77	180.626
657.275	180.027
657.779	179.456
658.284	178.954
658.789	178.531
659.294	178.244
659.798	178.125
660.303	178.178
660.808	178.385
661.313	178.747
661.817	179.214
662.322	179.779
662.827	180.459
663.332	181.298
663.837	182.272
664.341	183.35
664.846	184.487
665.351	185.627
665.856	186.728
666.36	187.77
666.865	188.701
667.37	189.492
667.875	190.123
668.38	190.61
668.884	190.965
669.389	191.218
669.894	191.381
670.399	191.442
670.903	191.395
671.408	191.292
671.913	191.122
672.418	190.876
672.922	190.544
673.427	190.121
673.932	189.581
674.437	188.937
674.941	188.173
675.446	187.264
675.951	186.145
676.456	184.794
676.96	183.196
677.465	181.281
677.97	179.115
678.475	176.766
678.98	174.292
679.484	171.773
679.989	169.278
680.494	166.865
680.999	164.578
681.503	162.459
682.008	160.533
682.513	158.826
683.018	157.367
683.522	-1.357E+023
1463	1463
1024	1024
0	0
5	5
0.0116445	0.0116445
0	0
60	60
1	2
1	1
1	1
1	1
0	0
12	12
700	700
0	0
0	0
144	144
700	700
1	1
1	1
400	400
248	360
0	0
0	0
0	0
0	0
0	0
0	0
0	0
0	0
0	0
0	0
20	20
0	0
1	1
2	2
257.5	257.5
0.504766	0.504766
0	0
0	0
0	0
0	0
0	0
0	0
0	0
0	0
0	0
0	0
0	0
0	0
0	0
0	0
0	0
0	0
0	0
0	0
0	0
0	0
0	0
0	0
0	0
0	0
0	0
0	0
0	0
0	0
0	0
0	0
0	0
0	0
0	0
0	0
0	0
0	0
0	0
0	0
0	0
0	0
0	0
0	0
0	0
0	0
0	0
0	0
0	0
0	0
0	0
0	0
